<svg xmlns="http://www.w3.org/2000/svg" xmlns:xlink="http://www.w3.org/1999/xlink" width="140" height="125" viewBox="0 0 140 125">
  <defs>
    <clipPath id="clip-Walk">
      <rect width="140" height="125"/>
    </clipPath>
  </defs>
  <g id="Walk" clip-path="url(#clip-Walk)">
    <path id="Icon_awesome-walking" data-name="Icon awesome-walking" d="M17.086,7.886a3.943,3.943,0,1,0-3.943-3.943A3.944,3.944,0,0,0,17.086,7.886Zm7.763,12.248-1.914-.969-.8-2.415a8.957,8.957,0,0,0-8.4-6.235c-2.957-.008-4.592.83-7.664,2.07A7.836,7.836,0,0,0,2,16.38L1.445,17.5a2.637,2.637,0,0,0,1.166,3.524A2.593,2.593,0,0,0,6.1,19.847l.55-1.117a2.611,2.611,0,0,1,1.355-1.265l2.2-.887L8.962,21.564a5.276,5.276,0,0,0,1.224,4.83l4.921,5.372a5.3,5.3,0,0,1,1.224,2.275l1.5,6.021a2.629,2.629,0,0,0,5.1-1.273l-1.824-7.311A5.255,5.255,0,0,0,19.887,29.2L16.15,25.12l1.413-5.643.452,1.355a5.239,5.239,0,0,0,2.6,3.039l1.914.969a2.593,2.593,0,0,0,3.491-1.175,2.66,2.66,0,0,0-1.175-3.532ZM6.046,31.692a5.1,5.1,0,0,1-1.166,1.766L.772,37.574A2.628,2.628,0,0,0,4.485,41.3l4.88-4.88a5.34,5.34,0,0,0,1.166-1.766l1.109-2.777C7.1,26.92,8.461,28.439,7.746,27.462l-1.7,4.231Z" transform="translate(56.498 41.5)" fill="none" stroke="#c0ccda" stroke-width="2.3"/>
  </g>
</svg>
