{
    "products": [
        {
            "_id": "5cd576d6fe10793a72e7ccef",
            "item": "5cd4ddb4ec2ca71f2660dfc9",
            "quantity": 1,
            "price": 10000,
            "name": "Salmon and Vegetables"
        }
    ],
    "customer": {
        "id": "5cd576d6fe10793a72e7ccef",
        "name": "John Doe",
        "phone": "23480770000000",
        "email": "johndoe@example.com"
    },
    "transaction": {
        "reference": "DBAE34D9",
        "amount": "10000",
        "currency": "NGN",
        "createdAt": "2019-05-10T13:04:23.066+0000",
        "paidAt": "2019-05-10T13:04:23.066+0000"
    },
    "till": {
        "id": "5cd576d6fe10793a72e7ccef",
        "name": "Name of Till",
        "terminalID": "2070AL32",
        "branch": "Ikeja City Branch"
    },
    "payment": {
        "channels": [
            "cash"
        ],
        "billID": "5cdd1c987c30783195f5fa52",
        "taxes": [
            {
                "_id": "5cefe794fc03306218bd2f4c",
                "taxID": "5cefdfbcd7191562124f840d",
                "percentage": 10,
                "name": "VAT 10%"
            }
        ],
        "discounts": [
            {
                "_id": "5d04298c226e004bff227d5a",
                "discountID": "5d042562a394de4bfaa4eefe",
                "valueType": "constant",
                "value": 2500,
                "name": "Centi Discount"
            }
        ],
        "status": "approved",
        "chargesApplied": "NA",
        "discountOnTheGo": {
            "_id": "5d7ab51354f5fc7404a67fdc",
            "amount": 200,
            "tillID": "5d4bf5c31323d45ab735eb76"
        }
    },
    "type": "new"
}