<svg xmlns="http://www.w3.org/2000/svg" xmlns:xlink="http://www.w3.org/1999/xlink" width="512" height="512" viewBox="0 0 512 512">
  <defs>
    <clipPath id="clip-_1">
      <rect width="512" height="512"/>
    </clipPath>
  </defs>
  <g id="_1" data-name="1" clip-path="url(#clip-_1)">
    <g id="g10" transform="translate(11.001 659.571)">
      <g id="g12" transform="translate(0 -557.571)">
        <path id="path14" d="M253.072-44.74A40.49,40.49,0,0,0,233.342-65c-8.725-4.087-28.2-2.188-28.2-2.188L153.976-67.3c1.046,4.494,4.381,16.035,6.872,19.92a19.3,19.3,0,0,0,10.61,8.414c5.433,1.537,11.189-.054,16.823-.417,9.917-.64,19.621,2.562,29.17,5.315s19.678,5.1,29.336,2.758c2.742-.663,5.615-1.887,6.946-4.374,1.48-2.765.593-6.183-.661-9.057" transform="translate(-69.098 337.707)" fill="#f3f1ff"/>
        <path id="path16" d="M30.408-355.2s-5.82-.419-5.284,12.637a151.24,151.24,0,0,0,1.868,20.011s-.171,2.9-2.413,2.326-6.46-3.385-8.543-1.279c-2.16,2.184-1.393,5.535,1.473,9.48S26.335-299.2,26.871-298.4c.526.789.738,2.271-.852,2.129s-12.317-3.779-13.738,1.415S20.65-279.976,21.7-278.9s1.106,1.76.681,2.413-3.917-.91-7.01-1.819-6.84-1.421-7.409,1.644,3.744,12.035,19.891,21.464l7.768,3.879,7.353-4.69C58.1-267,61.49-276.359,60.618-279.352s-4.549-2.109-7.536-.894-6.3,3.117-6.793,2.511-.5-1.291.436-2.47S56.434-292,54.5-297.021s-12.243-.334-13.81-.035-1.506-1.194-1.061-2.032c.453-.854,5.5-10.281,7.953-14.495s2.886-7.623.517-9.58c-2.283-1.887-6.2,1.338-8.372,2.128s-2.634-2.074-2.634-2.074a151.26,151.26,0,0,0-.143-20.1c-.773-13.045-6.662-11.991-6.662-11.991" transform="translate(-3.551 466.763)" fill="#f3f1ff"/>
        <path id="path18" d="M49.552-333.967s.016.092.031.273.035.459.062.8l.209,3.083c.178,2.678.407,6.555.672,11.345.533,9.583,1.155,22.826,1.794,37.453s1.228,27.877,1.707,37.461c.243,4.782.44,8.656.577,11.349.066,1.33.118,2.367.153,3.085.014.343.025.609.033.8s0,.274,0,.274-.016-.092-.031-.272-.036-.459-.062-.8l-.209-3.083c-.178-2.678-.407-6.553-.672-11.345-.533-9.582-1.155-22.826-1.794-37.458S50.8-308.87,50.317-318.454c-.243-4.782-.441-8.656-.578-11.35-.066-1.33-.118-2.367-.154-3.086-.013-.343-.024-.609-.032-.8s0-.274,0-.274" transform="translate(-22.236 457.227)" fill="#dadbd8"/>
        <path id="path20" d="M33.061-286.475a2.523,2.523,0,0,1,.483.4c.3.271.719.677,1.233,1.183,1.025,1.016,2.4,2.456,3.9,4.072l3.8,4.158,1.156,1.254a2.529,2.529,0,0,1,.4.481,2.6,2.6,0,0,1-.486-.4c-.3-.273-.718-.678-1.227-1.191-1.016-1.026-2.375-2.484-3.866-4.1l-3.828-4.128-1.163-1.249a2.535,2.535,0,0,1-.4-.484" transform="translate(-14.836 435.915)" fill="#dadbd8"/>
        <path id="path22" d="M54.363-276.635c-.059-.057,2.783-3.033,6.345-6.644s6.5-6.494,6.557-6.435-2.781,3.033-6.345,6.645-6.5,6.494-6.556,6.435" transform="translate(-24.395 437.368)" fill="#dadbd8"/>
        <path id="path24" d="M54.3-232.064a2.72,2.72,0,0,1,.541-.344l1.519-.853c1.282-.72,3.05-1.721,4.96-2.9s3.609-2.289,4.831-3.108l1.45-.967a2.62,2.62,0,0,1,.552-.326,2.664,2.664,0,0,1-.484.42c-.324.255-.8.615-1.4,1.046-1.193.864-2.876,2.013-4.8,3.188s-3.706,2.153-5.016,2.827c-.656.335-1.191.6-1.566.77a2.593,2.593,0,0,1-.595.242" transform="translate(-24.369 415.309)" fill="#dadbd8"/>
        <path id="path26" d="M30.959-239.441a2.265,2.265,0,0,1,.537.252c.336.179.817.447,1.408.783,1.183.672,2.806,1.618,4.589,2.678s3.39,2.036,4.546,2.753c.577.36,1.042.655,1.36.864a2.239,2.239,0,0,1,.478.352,2.342,2.342,0,0,1-.537-.253c-.336-.179-.817-.446-1.408-.782-1.183-.672-2.806-1.618-4.59-2.679s-3.39-2.035-4.545-2.753c-.577-.359-1.042-.655-1.36-.864a2.3,2.3,0,0,1-.478-.351" transform="translate(-13.893 414.808)" fill="#dadbd8"/>
        <path id="path28" d="M26.328-203.4a3.645,3.645,0,0,1,.684.331l1.808,1c1.52.854,3.61,2.051,5.908,3.388s4.372,2.564,5.865,3.463l1.761,1.079a3.718,3.718,0,0,1,.625.431,3.7,3.7,0,0,1-.684-.331l-1.808-1c-1.52-.853-3.61-2.051-5.909-3.389s-4.372-2.562-5.864-3.462l-1.761-1.079a3.751,3.751,0,0,1-.625-.431" transform="translate(-11.814 398.633)" fill="#dadbd8"/>
        <path id="path30" d="M55.929-195.605a4.353,4.353,0,0,1,.676-.453l1.888-1.149c1.593-.971,3.79-2.319,6.174-3.874s4.511-3.013,6.042-4.08l1.816-1.261a4.326,4.326,0,0,1,.686-.435,4.213,4.213,0,0,1-.618.528c-.409.324-1.01.784-1.761,1.339-1.5,1.112-3.611,2.6-6,4.157s-4.607,2.881-6.23,3.807c-.813.461-1.474.827-1.937,1.069a4.231,4.231,0,0,1-.733.352" transform="translate(-25.098 400.186)" fill="#dadbd8"/>
        <path id="path32" d="M59.613-162.122H38.123l7.014,53.1H52.6l7.014-53.1" transform="translate(-17.108 380.11)" fill="#f3f1ff"/>
        <path id="path34" d="M40.145-152.064c-.008.005.024.074.115.189a1.367,1.367,0,0,0,.518.371,2.606,2.606,0,0,0,2.27-.279c.868-.479,1.624-1.419,2.787-1.835a6.092,6.092,0,0,1,3.952.078,16.954,16.954,0,0,1,3.68,1.783,25.357,25.357,0,0,0,2.992,1.605,8.213,8.213,0,0,0,2.207.638,4.019,4.019,0,0,0,.624.043c.143,0,.218-.006.218-.018a11.239,11.239,0,0,1-2.948-.889,29.5,29.5,0,0,1-2.926-1.656,16.282,16.282,0,0,0-3.742-1.841,6.307,6.307,0,0,0-4.171-.046,5.509,5.509,0,0,0-1.57.971,12.22,12.22,0,0,1-1.23.953,2.527,2.527,0,0,1-2.093.363,2.147,2.147,0,0,1-.681-.432" transform="translate(-18.015 376.579)" fill="#f3f2f1"/>
        <path id="path36" d="M41.567-135.715c.029.018.17-.218.506-.57a4.768,4.768,0,0,1,1.716-1.089,7.674,7.674,0,0,1,2.989-.451,31.464,31.464,0,0,1,3.74.51,12.9,12.9,0,0,0,3.829.159,10.549,10.549,0,0,0,3.013-.86,9.631,9.631,0,0,0,1.812-1.078,2.54,2.54,0,0,0,.574-.517,19.148,19.148,0,0,1-2.484,1.366,11.028,11.028,0,0,1-2.953.767,13.194,13.194,0,0,1-3.735-.184,28.182,28.182,0,0,0-3.785-.486,7.585,7.585,0,0,0-3.092.543,4.519,4.519,0,0,0-1.724,1.227,3.041,3.041,0,0,0-.325.477c-.063.115-.09.179-.08.185" transform="translate(-18.652 370.008)" fill="#f3f2f1"/>
        <path id="path38" d="M59.716-124.251a1.8,1.8,0,0,0-.592-.307,6.339,6.339,0,0,0-1.781-.382,11.369,11.369,0,0,0-2.692.154c-1,.163-2.077.44-3.2.679a13.546,13.546,0,0,1-3.2.362,6.988,6.988,0,0,1-2.541-.55,5.868,5.868,0,0,1-1.927-1.435,1.661,1.661,0,0,0,.363.561,4.552,4.552,0,0,0,1.459,1.1,6.866,6.866,0,0,0,2.631.647,12.9,12.9,0,0,0,3.287-.341c1.141-.243,2.207-.527,3.188-.7a12.315,12.315,0,0,1,2.624-.225,9.82,9.82,0,0,1,2.387.442" transform="translate(-19.644 363.78)" fill="#f3f2f1"/>
        <path id="path40" d="M45.013-110.7a3.492,3.492,0,0,1,2.086-.21,10.064,10.064,0,0,1,2.183.814,8.3,8.3,0,0,0,2.834.781,8.5,8.5,0,0,0,5.141-1.192,7.307,7.307,0,0,0,1.279-.984c.261-.278.4-.439.379-.455a18.925,18.925,0,0,1-1.783,1.225,8.8,8.8,0,0,1-4.985,1.056c-2.035-.115-3.6-1.329-5.007-1.49a3.2,3.2,0,0,0-1.621.14,1.061,1.061,0,0,0-.506.315" transform="translate(-20.199 357.596)" fill="#f3f2f1"/>
        <path id="path42" d="M47.185-93.615a4.13,4.13,0,0,0,1.792-.356c1.08-.361,2.417-1.189,3.979-1.81a6.485,6.485,0,0,1,2.283-.478,4.215,4.215,0,0,1,1.836.419A4.064,4.064,0,0,1,58.4-94.694a.973.973,0,0,0-.2-.453,2.953,2.953,0,0,0-1.007-.912,4.217,4.217,0,0,0-1.948-.523,6.405,6.405,0,0,0-2.413.474c-1.618.645-2.913,1.5-3.945,1.906-1.019.44-1.71.531-1.7.587" transform="translate(-21.174 350.699)" fill="#f3f2f1"/>
        <path id="path44" d="M49.1-82.608a4.988,4.988,0,0,0,1.36.442,24.488,24.488,0,0,0,3.4.573,24.441,24.441,0,0,0,3.448.1,5.072,5.072,0,0,0,1.421-.168c-.006-.106-2.178-.014-4.835-.281s-4.771-.769-4.8-.667" transform="translate(-22.032 344.433)" fill="#f3f2f1"/>
        <path id="path46" d="M732.523-280.864l-65.357,14.936L657.1-309.98l65.357-14.936,10.068,44.053" transform="translate(-294.878 453.165)" fill="#f3f1ff"/>
        <path id="path48" d="M723.055-324.042a4.758,4.758,0,0,1-.475.725l-1.455,2.01-5.447,7.331-18.2,24.11-.149.2-.226-.108-.542-.262-27.539-13.372-8.316-4.114-2.247-1.147a4.7,4.7,0,0,1-.765-.437,4.777,4.777,0,0,1,.819.327l2.3,1.044,8.4,3.94,27.616,13.211.543.262-.375.09,18.34-24c2.335-3.01,4.238-5.461,5.6-7.216l1.545-1.941a4.647,4.647,0,0,1,.572-.652" transform="translate(-295.147 452.773)" fill="#dadbd8"/>
        <path id="path50" d="M675.957-242.848c-.149-.076,3.385-7.238,7.894-15.993s8.287-15.795,8.436-15.717-3.385,7.236-7.895,15.995-8.286,15.793-8.435,15.715" transform="translate(-303.339 430.567)" fill="#dadbd8"/>
        <path id="path52" d="M744.765-284.567c.107-.13,6.333,4.755,13.905,10.909s13.629,11.252,13.523,11.382-6.33-4.753-13.907-10.91-13.627-11.25-13.522-11.381" transform="translate(-334.219 435.059)" fill="#dadbd8"/>
        <path id="path54" d="M275.169-507.3,236.655-516.2l6-25.96,38.514,8.894-6,25.96" transform="translate(-106.201 550.653)" fill="#f3f1ff"/>
        <path id="path56" d="M286.137-532.645a2.715,2.715,0,0,1-.438.263l-1.289.692-4.777,2.488-15.856,8.108-.131.067-.091-.115-.221-.279L252.166-535.6l-3.352-4.323-.9-1.186a2.713,2.713,0,0,1-.293-.429,2.912,2.912,0,0,1,.35.384l.95,1.144,3.442,4.252,11.25,14.114.221.279-.222-.049,15.9-8.013,4.827-2.386,1.32-.632a2.742,2.742,0,0,1,.47-.2" transform="translate(-111.123 550.376)" fill="#dadbd8"/>
        <path id="path58" d="M236.748-504.72c-.06-.079,3.658-2.969,8.3-6.453s8.46-6.247,8.519-6.166-3.657,2.968-8.3,6.453-8.459,6.246-8.519,6.167" transform="translate(-106.242 539.518)" fill="#dadbd8"/>
        <path id="path60" d="M290.624-512.566c.09-.042,2.137,4.152,4.57,9.365s4.334,9.476,4.245,9.517-2.136-4.151-4.57-9.366-4.334-9.475-4.245-9.517" transform="translate(-130.418 537.374)" fill="#dadbd8"/>
        <path id="path62" d="M675.647-511.436l-28.14,12.093-8.151-18.967L667.5-530.4l8.151,18.968" transform="translate(-286.916 545.379)" fill="#f3f1ff"/>
        <path id="path64" d="M667.837-530.06a2.126,2.126,0,0,1-.154.365l-.489,1.023c-.449.911-1.075,2.182-1.844,3.743-1.593,3.174-3.776,7.52-6.191,12.333l-.051.1-.111-.031-.265-.072-13.476-3.742-4.076-1.165-1.1-.33a2.106,2.106,0,0,1-.379-.134,2.234,2.234,0,0,1,.395.079l1.118.28,4.1,1.079,13.5,3.663.265.074-.161.071,6.266-12.3c.8-1.545,1.455-2.8,1.923-3.7l.534-1a2.019,2.019,0,0,1,.2-.34" transform="translate(-287.069 545.225)" fill="#dadbd8"/>
        <path id="path66" d="M654.481-486.409c-.073-.022.925-3.532,2.231-7.837s2.423-7.78,2.5-7.758-.925,3.531-2.232,7.839-2.423,7.778-2.5,7.756" transform="translate(-293.702 532.635)" fill="#dadbd8"/>
        <path id="path68" d="M679.843-509.728c.037-.068,3.237,1.615,7.147,3.757s7.051,3.934,7.014,4-3.237-1.615-7.148-3.758-7.051-3.934-7.013-4" transform="translate(-305.085 536.102)" fill="#dadbd8"/>
        <path id="path70" d="M745.656-185.165a23.273,23.273,0,0,0-9.957-3.427,6.639,6.639,0,0,0-4.71.866.969.969,0,0,0-.484.86,1.05,1.05,0,0,0,.46.589,14.236,14.236,0,0,0,14.692,1.113" transform="translate(-327.815 392.022)" fill="#958eff"/>
        <path id="path72" d="M748.92-195.534a48.516,48.516,0,0,1-6.431-5.659,16.272,16.272,0,0,1-4.033-7.456,3.012,3.012,0,0,1,.319-2.5c5.126,4,9.154,9.182,10.145,15.611" transform="translate(-331.334 402.109)" fill="#958eff"/>
        <path id="path74" d="M757.636-194.93a23.266,23.266,0,0,1,.119-8.444,11.415,11.415,0,0,1,4.5-6.967c.886,2.07.506,4.455-.119,6.62a32.148,32.148,0,0,1-4.459,9.389" transform="translate(-339.849 401.748)" fill="#958eff"/>
        <path id="path76" d="M756.8-166.049a14.709,14.709,0,0,0-7.985,4.042,15.108,15.108,0,0,0-4.568,7.841c2.992-.184,5.531-2.295,7.372-4.661s3.116-4.962,5.139-7.175" transform="translate(-333.986 381.872)" fill="#958eff"/>
        <path id="path78" d="M767.88-178.6a19.694,19.694,0,0,1,2.274-18.63,23.714,23.714,0,0,1-2.274,18.63" transform="translate(-343.976 395.866)" fill="#958eff"/>
        <path id="path80" d="M769.79-149.116a14.35,14.35,0,0,0-7.987,1.871,14.345,14.345,0,0,0-5.629,5.967c-.169.337-.318.766-.092,1.068a1.012,1.012,0,0,0,.9.265c2.683-.173,5.061-1.788,7.024-3.627s3.672-3.962,5.841-5.552" transform="translate(-339.246 374.285)" fill="#958eff"/>
        <path id="path82" d="M779.731-165.235a25.355,25.355,0,0,1-.253-14.166c.5-1.824,1.337-3.743,3.023-4.6a.6.6,0,0,1,.462-.081.609.609,0,0,1,.293.339,8.525,8.525,0,0,1,.713,4.064,25.572,25.572,0,0,1-.637,4.115c-.531,2.514-.814,5.216-2.193,7.386a14.9,14.9,0,0,0-.877,1.622c-.261.551-.263.745-.5,1.183" transform="translate(-349.399 389.974)" fill="#958eff"/>
        <path id="path84" d="M812.146-157.829a18.271,18.271,0,0,1,3.2-15.019c.229-.3.534-.619.91-.584.575.054.725.82.7,1.4a27.133,27.133,0,0,1-4.81,14.208" transform="translate(-364.238 385.187)" fill="#958eff"/>
        <path id="path86" d="M815.419-147.385a21.848,21.848,0,0,0,17.926-3.646,14.511,14.511,0,0,0-9.7-1.191,13.84,13.84,0,0,0-8.222,4.837" transform="translate(-365.926 375.827)" fill="#958eff"/>
        <path id="path88" d="M817.843-156.8a20.718,20.718,0,0,1,16.27-9.408,10.021,10.021,0,0,1-5.321,5.884,29.543,29.543,0,0,1-7.81,2.284c-1.039.2-2.465.423-3.138,1.24" transform="translate(-367.014 381.944)" fill="#958eff"/>
        <path id="path90" d="M811.249-193.6a47.246,47.246,0,0,0,2.081-9.528,15.875,15.875,0,0,0-1.9-9.425,20.746,20.746,0,0,0-.278,19.28" transform="translate(-363.005 402.743)" fill="#958eff"/>
        <path id="path92" d="M832.379-198.3c3.682-6.692,11.193-12.036,18.794-12.786-2.932,7.3-10.928,12.942-18.794,12.786" transform="translate(-373.537 402.083)" fill="#958eff"/>
        <path id="path94" d="M828.178-186.408c5.491.837,10.168,4.344,15.3,6.469a6.855,6.855,0,0,0,3.459.662,3.009,3.009,0,0,0,2.6-2.1,3.02,3.02,0,0,0-.908-2.688,7.415,7.415,0,0,0-2.513-1.524,27.919,27.919,0,0,0-17.469-.974" transform="translate(-371.651 391.501)" fill="#958eff"/>
        <path id="path96" d="M822.414-178.744c1.243.356,1.668,1,2.652,1.837a28.622,28.622,0,0,0,11.6,5.961c.444.11,1.025.154,1.245-.247.191-.35-.051-.773-.3-1.085a15.972,15.972,0,0,0-7.005-4.755c-2.677-1-5-2.2-8.193-1.941" transform="translate(-369.065 387.688)" fill="#958eff"/>
        <path id="path98" d="M815.91-221.2a21.956,21.956,0,0,0,16.833,5.727,1.155,1.155,0,0,0,.767-.275c.423-.461-.084-1.172-.578-1.557A19.394,19.394,0,0,0,815.91-221.2" transform="translate(-366.146 406.89)" fill="#958eff"/>
        <path id="path100" d="M823.622-227.265a23.461,23.461,0,0,1,21.005-3.465,16.673,16.673,0,0,1-10.01,4.394,31.665,31.665,0,0,1-11-.928" transform="translate(-369.607 411.394)" fill="#958eff"/>
        <path id="path102" d="M818.246-255.027c-.487-4.94-.17-8.84-.514-13.8-.027-.4-.112-.873-.484-1.016-.516-.2-.947.436-1.116.963a15.824,15.824,0,0,0,2.106,13.747" transform="translate(-365.921 428.468)" fill="#958eff"/>
        <path id="path104" d="M819.911-254.584a29.058,29.058,0,0,0,8.183-7.953c1.616-2.212,2.978-4.861,2.611-7.575a7.826,7.826,0,0,0-5.9,2.931,16.47,16.47,0,0,0-3.01,6.053c-.655,2.173-1.114,4.407-1.882,6.544" transform="translate(-367.942 428.572)" fill="#958eff"/>
        <path id="path106" d="M834.41-256.067a66,66,0,0,0,20.139-11.875c-2.406-.969-5.16-.389-7.564.582a23.856,23.856,0,0,0-12.679,11.239" transform="translate(-374.401 427.821)" fill="#958eff"/>
        <path id="path108" d="M824.013-241.782a40.939,40.939,0,0,0,11.182.055,47.509,47.509,0,0,0,10.439-3.468,1.227,1.227,0,0,0,.709-.539.816.816,0,0,0-.254-.893,2.158,2.158,0,0,0-.89-.417,19.324,19.324,0,0,0-11.281.674,52.351,52.351,0,0,0-9.9,4.589" transform="translate(-369.782 418.472)" fill="#958eff"/>
        <path id="path110" d="M783.988-233.742a19.783,19.783,0,0,1-.181-16.37c1.543,2.35,1.731,5.343,1.449,8.139s-1.133,5.676-1.188,8.486" transform="translate(-350.985 419.596)" fill="#958eff"/>
        <path id="path112" d="M753.311-229.689a22.836,22.836,0,0,0-16.966,7.228,15.861,15.861,0,0,0,9.291-1.722,47.279,47.279,0,0,0,7.961-5.329" transform="translate(-330.44 410.433)" fill="#958eff"/>
        <path id="path114" d="M741.773-234.062c-3.1-.251-6.078-.634-9.057.279a10.863,10.863,0,0,0-6.9,5.853,16.362,16.362,0,0,0,8.491-1.6,48.813,48.813,0,0,0,7.469-4.529" transform="translate(-325.714 412.527)" fill="#958eff"/>
        <path id="path116" d="M758.278-237.5c-2.787-1.826-5.648-3.686-8.894-4.442s-7.005-.2-9.267,2.248c2.626,1.541,5.813,1.724,8.86,1.721s6.779-.036,9.65.98" transform="translate(-332.133 416.071)" fill="#958eff"/>
        <path id="path118" d="M768.692-249.22c-4.765-4.678-6.571-13.083-4.654-19.479a29.69,29.69,0,0,1,4.654,19.479" transform="translate(-342.53 427.937)" fill="#958eff"/>
        <path id="path120" d="M796.859-269.924c.9-2.09,1.531-4.281,2.336-6.408a18.427,18.427,0,0,1,3.332-5.907,8.771,8.771,0,0,1,5.9-3.058,23.766,23.766,0,0,1-11.452,15.406" transform="translate(-357.597 435.385)" fill="#958eff"/>
        <path id="path122" d="M782.526-259.234c-1.486-2.047-3.2-4.825-5.221-6.353a8.738,8.738,0,0,0-7.1-1.865,16.543,16.543,0,0,0,12.324,8.219" transform="translate(-345.634 427.458)" fill="#958eff"/>
        <path id="path124" d="M791.366-269.6a35.391,35.391,0,0,1-2.351-7.612,11.871,11.871,0,0,1,1.192-7.739c2.615,4.944,3.458,10.251,1.292,15.408" transform="translate(-353.999 435.229)" fill="#958eff"/>
        <path id="path126" d="M796.9-293.478c1.481-4.9,5.969-8.509,10.814-10.165a4.033,4.033,0,0,1,1.9-.284,1.645,1.645,0,0,1,1.4,1.166c.177.834-.511,1.581-1.16,2.134a36.82,36.82,0,0,1-12.947,7.148" transform="translate(-357.617 443.759)" fill="#958eff"/>
        <path id="path128" d="M796.937-305.629a35.136,35.136,0,0,1,1.413-9.359,11.836,11.836,0,0,1,5.89-7.113c.49,3.191-.917,6.366-2.616,9.113s-3.746,5.338-4.765,8.4" transform="translate(-357.597 451.902)" fill="#958eff"/>
        <path id="path130" d="M789.378-302.26c-1.224-3.571-1.351-8.108-3.49-11.22-1.495-2.175-3.889-3.657-5.177-5.961a9.068,9.068,0,0,0,.3,6.767,19.591,19.591,0,0,0,3.956,5.664c1.582,1.69,2.938,2.962,4.409,4.749" transform="translate(-350.116 450.708)" fill="#958eff"/>
        <path id="path132" d="M796.753-184.1c-.1,0-.178-23.826-.185-53.21s.065-53.217.16-53.217.178,23.821.185,53.216-.065,53.211-.16,53.211" transform="translate(-357.466 437.734)" fill="#17282f"/>
        <path id="path134" d="M817.7-226.94a5.079,5.079,0,0,1-.9.337l-2.464.831c-2.079.709-4.935,1.735-8.034,3-3.069,1.316-5.963,2.386-7.611,3.814a5.594,5.594,0,0,0-1.529,2.023c-.237.559-.279.9-.31.9a.692.692,0,0,1,.01-.25,3.832,3.832,0,0,1,.176-.7,5.376,5.376,0,0,1,1.493-2.156,13.374,13.374,0,0,1,3.3-2.051c1.321-.617,2.785-1.26,4.339-1.9,3.109-1.274,5.986-2.267,8.088-2.917,1.051-.328,1.908-.569,2.5-.728a4.987,4.987,0,0,1,.933-.208" transform="translate(-357.591 409.199)" fill="#17282f"/>
        <path id="path136" d="M825.858-257.349a1.421,1.421,0,0,1-.251.268l-.764.718c-.709.645-1.677,1.523-2.854,2.592l-9.5,8.459c-3.709,3.3-6.913,6.455-9.134,8.83-1.112,1.186-1.987,2.168-2.586,2.854l-.69.789c-.159.179-.248.269-.258.261a1.5,1.5,0,0,1,.2-.305c.145-.192.354-.476.642-.831.567-.714,1.417-1.724,2.509-2.933a120.513,120.513,0,0,1,9.083-8.922c3.722-3.293,7.108-6.251,9.569-8.384l2.926-2.511.808-.67a1.5,1.5,0,0,1,.3-.216" transform="translate(-358.925 422.844)" fill="#17282f"/>
        <path id="path138" d="M815.533-236.137c-.1-.043.677-1.832,1.449-4.094s1.146-4.171,1.245-4.155a13.988,13.988,0,0,1-.919,4.264,27.913,27.913,0,0,1-1.154,2.864,4.444,4.444,0,0,1-.622,1.12" transform="translate(-365.973 417.027)" fill="#17282f"/>
        <path id="path140" d="M785.7-217.424a4.256,4.256,0,0,1-.571-.663l-1.464-1.878c-1.23-1.589-2.93-3.783-4.835-6.184s-3.658-4.555-4.927-6.114l-1.5-1.852a4.259,4.259,0,0,1-.516-.706,4.282,4.282,0,0,1,.618.62c.381.414.922,1.022,1.58,1.782,1.318,1.519,3.1,3.651,5.01,6.056s3.579,4.625,4.759,6.253c.591.814,1.061,1.478,1.378,1.944a4.227,4.227,0,0,1,.464.742" transform="translate(-346.391 412.735)" fill="#17282f"/>
        <path id="path142" d="M786.731-219.757a8.4,8.4,0,0,1-1.912-3.58,10.237,10.237,0,0,1-.434-3.61l.152.012c-.069.276-.118.421-.145.417s-.029-.158-.006-.442l.152.012a16.417,16.417,0,0,0,.611,3.512,26.836,26.836,0,0,0,1.582,3.679" transform="translate(-351.989 409.206)" fill="#17282f"/>
        <path id="path144" d="M769.573-228.534a6.134,6.134,0,0,0-1.336-.776,8.918,8.918,0,0,0-3.707-.295,22.883,22.883,0,0,0-3.733.6,11.2,11.2,0,0,1-1.536.368,5.346,5.346,0,0,1,1.471-.6,16.97,16.97,0,0,1,3.773-.711,8.078,8.078,0,0,1,3.824.412,2.362,2.362,0,0,1,1.245,1" transform="translate(-340.724 410.57)" fill="#17282f"/>
        <path id="path146" d="M763.637-232.385c-.026.054-.777-.312-2.045-.745a21.077,21.077,0,0,0-5.1-1.05,21.077,21.077,0,0,0-5.206.264c-1.319.236-2.117.483-2.134.426a1.921,1.921,0,0,1,.542-.232,12.663,12.663,0,0,1,1.545-.434,18.213,18.213,0,0,1,5.279-.37,18.245,18.245,0,0,1,5.161,1.166,12.813,12.813,0,0,1,1.462.663,1.906,1.906,0,0,1,.5.311" transform="translate(-336.186 412.624)" fill="#17282f"/>
        <path id="path148" d="M794.693-252.893a42.433,42.433,0,0,1-1.492-5.182,42.234,42.234,0,0,1-1.158-5.268,42.5,42.5,0,0,1,1.493,5.183,42.261,42.261,0,0,1,1.158,5.267" transform="translate(-355.431 425.534)" fill="#17282f"/>
        <path id="path150" d="M793.7-248.961a25.2,25.2,0,0,0-1.654-3.1,13.678,13.678,0,0,0-2.434-2.511,2.26,2.26,0,0,1,.939.484,7.554,7.554,0,0,1,1.776,1.829,6.9,6.9,0,0,1,1.373,3.3" transform="translate(-354.346 421.602)" fill="#17282f"/>
        <path id="path152" d="M779.134-148.816c-.037.006-.108-.573-.376-1.584a22.559,22.559,0,0,0-1.592-4.126,57.1,57.1,0,0,0-8.448-11.9c-1.885-2.155-3.716-4.187-5.268-6.134a43.074,43.074,0,0,1-3.768-5.433,26.17,26.17,0,0,1-1.9-4.033c-.175-.5-.3-.885-.374-1.153a1.9,1.9,0,0,1-.1-.412c.031-.009.2.546.6,1.517a29.5,29.5,0,0,0,1.987,3.958,45.625,45.625,0,0,0,3.8,5.358c1.559,1.926,3.391,3.948,5.281,6.106a54.084,54.084,0,0,1,8.407,12.022,20.551,20.551,0,0,1,1.5,4.2,11.486,11.486,0,0,1,.211,1.2,1.93,1.93,0,0,1,.035.421" transform="translate(-339.847 389.745)" fill="#17282f"/>
        <path id="path154" d="M815.716-159.059a8.862,8.862,0,0,1-.986.553,21.512,21.512,0,0,0-2.558,1.69,29.461,29.461,0,0,0-3.359,3.063c-1.18,1.247-2.394,2.693-3.633,4.242-2.478,3.109-4.8,5.861-6.183,8.057-.7,1.089-1.218,2.008-1.553,2.652a8.6,8.6,0,0,1-.542.993.917.917,0,0,1,.091-.279c.073-.177.173-.444.331-.773a25.41,25.41,0,0,1,1.467-2.722,88.915,88.915,0,0,1,6.121-8.142c1.243-1.553,2.472-3,3.673-4.246a27.342,27.342,0,0,1,3.442-3.039,17.945,17.945,0,0,1,2.642-1.614c.326-.165.592-.265.77-.341a.922.922,0,0,1,.279-.094" transform="translate(-357.615 378.736)" fill="#17282f"/>
        <path id="path156" d="M821.117-146.571a14.384,14.384,0,0,1-2.084.3,27.469,27.469,0,0,0-4.944.974,14.844,14.844,0,0,0-4.425,2.323c-1.02.788-1.5,1.441-1.549,1.4a1.6,1.6,0,0,1,.309-.48,7.831,7.831,0,0,1,1.086-1.111,13.371,13.371,0,0,1,4.473-2.461,22.287,22.287,0,0,1,5.024-.888,11.47,11.47,0,0,1,2.11-.061" transform="translate(-362.647 373.143)" fill="#17282f"/>
        <path id="path158" d="M809.212-144.6c-.108-.061.831-1.5,1.559-3.426.684-1.948.844-3.655.967-3.635a3.338,3.338,0,0,1-.035,1.118,11.991,11.991,0,0,1-.608,2.635,12.738,12.738,0,0,1-1.21,2.416,3.337,3.337,0,0,1-.674.892" transform="translate(-363.137 375.415)" fill="#17282f"/>
        <path id="path160" d="M821.816-192.636a1.592,1.592,0,0,1-.334.177l-.981.446c-.428.184-.949.417-1.535.726s-1.277.617-1.992,1.047l-1.137.647c-.394.226-.785.5-1.2.755-.839.509-1.678,1.135-2.574,1.774a48.445,48.445,0,0,0-5.373,4.726,48.43,48.43,0,0,0-4.541,5.533c-.608.918-1.206,1.779-1.685,2.633-.246.423-.5.822-.714,1.225l-.607,1.158c-.4.731-.694,1.427-.978,2.026s-.5,1.125-.673,1.56c-.168.4-.3.731-.412.994a1.582,1.582,0,0,1-.165.34,1.558,1.558,0,0,1,.1-.362c.093-.27.21-.607.352-1.019.151-.444.349-.982.622-1.588s.543-1.318.936-2.059q.283-.564.592-1.176c.208-.407.459-.813.7-1.242.472-.867,1.064-1.74,1.67-2.669a46.3,46.3,0,0,1,4.555-5.592,46.237,46.237,0,0,1,5.432-4.741c.909-.638,1.76-1.259,2.61-1.761.421-.257.817-.521,1.217-.744l1.155-.631c.728-.418,1.426-.718,2.025-1.006s1.129-.511,1.567-.676l1.006-.387a1.56,1.56,0,0,1,.36-.112" transform="translate(-357.621 393.804)" fill="#17282f"/>
        <path id="path162" d="M815.073-176.561a2.4,2.4,0,0,1,.819-1.219,5.169,5.169,0,0,1,3.3-1.266,9.036,9.036,0,0,1,3.472.678,4.911,4.911,0,0,1,1.313.639,8.171,8.171,0,0,1-1.392-.409,10.481,10.481,0,0,0-3.381-.564,5.373,5.373,0,0,0-3.151,1.106,9.761,9.761,0,0,0-.978,1.034" transform="translate(-365.769 387.705)" fill="#17282f"/>
        <path id="path164" d="M811.033-175.44a12.469,12.469,0,0,0,.936-3.047,12.407,12.407,0,0,0-.21-3.182,2.009,2.009,0,0,1,.387.888,6.245,6.245,0,0,1,.165,2.334,6.257,6.257,0,0,1-.7,2.233c-.291.526-.548.8-.581.775" transform="translate(-363.954 388.882)" fill="#17282f"/>
        <path id="path166" d="M767.05-114.312c.514,9.106,3.257,18.366,7.478,27.729h18.353c4.024-9.27,6.579-18.517,7.033-27.729H767.05" transform="translate(-344.22 358.655)" fill="#33535f"/>
        <path id="path168" d="M799.3-87.723c0,.095-6.042.173-13.5.173s-13.5-.078-13.5-.173,6.041-.172,13.5-.172,13.5.076,13.5.172" transform="translate(-346.579 346.8)" fill="#fafaf9"/>
        <path id="path170" d="M799.929-81.739c0,.1-5.664.173-12.651.173s-12.653-.077-12.653-.173,5.664-.171,12.653-.171,12.651.077,12.651.171" transform="translate(-347.619 344.114)" fill="#fafaf9"/>
        <path id="path172" d="M451.737-224.028h-261.2a10.707,10.707,0,0,1-10.707-10.707V-400.212a10.707,10.707,0,0,1,10.707-10.707h261.2a10.707,10.707,0,0,1,10.707,10.707v165.476a10.708,10.708,0,0,1-10.707,10.707" transform="translate(-80.699 491.759)" fill="#33535f"/>
        <path id="path174" d="M452.9-77.426H172.873a13.082,13.082,0,0,1-13.081-13.081v-3.271H465.984v3.271A13.081,13.081,0,0,1,452.9-77.426" transform="translate(-71.708 349.44)" fill="#33535f"/>
        <path id="path176" d="M193.592-239.622H460.243V-397.448H193.592Z" transform="translate(-86.876 485.714)" fill="#17282f"/>
        <path id="path178" d="M385.632-96.959l3.8,6.044H442.9l3.529-6.044H385.632" transform="translate(-173.055 350.867)" fill="#17282f"/>
        <path id="path180" d="M457.365-235.778H205.96a2.406,2.406,0,0,1-2.406-2.406V-385.351a2.406,2.406,0,0,1,2.406-2.406H457.365a2.406,2.406,0,0,1,2.406,2.406v147.167a2.406,2.406,0,0,1-2.406,2.406" transform="translate(-91.346 481.365)" fill="#e7e8e5"/>
        <path id="path182" d="M459.273-226.31H203.057l.274-140.843H459.273V-226.31" transform="translate(-91.123 472.119)" fill="#fafaf9"/>
        <path id="path184" d="M238.344-378.774a2.047,2.047,0,0,1-2.047,2.046,2.046,2.046,0,0,1-2.046-2.046,2.046,2.046,0,0,1,2.046-2.046,2.046,2.046,0,0,1,2.047,2.046" transform="translate(-105.122 478.252)" fill="#17282f"/>
        <path id="path186" d="M215.845-378.774a2.046,2.046,0,0,1-2.046,2.046,2.047,2.047,0,0,1-2.046-2.046,2.046,2.046,0,0,1,2.046-2.046,2.046,2.046,0,0,1,2.046,2.046" transform="translate(-95.026 478.252)" fill="#17282f"/>
        <path id="path188" d="M226.645-378.774a2.046,2.046,0,0,1-2.046,2.046,2.047,2.047,0,0,1-2.047-2.046,2.046,2.046,0,0,1,2.047-2.046,2.046,2.046,0,0,1,2.046,2.046" transform="translate(-99.872 478.252)" fill="#17282f"/>
        <path id="path190" d="M460.015-97.107c0,.1-62.727.183-140.086.183-77.387,0-140.1-.082-140.1-.183s62.714-.183,140.1-.183c77.359,0,140.086.082,140.086.183" transform="translate(-80.699 351.016)" fill="#17282f"/>
        <path id="path192" d="M351.864-268.136,456.1-269.11l3.053,70.865-107.94-.776.648-69.115" transform="translate(-157.611 428.121)" fill="#6c63ff"/>
        <path id="path194" d="M352.391-300.958l49.251-40.022a5.667,5.667,0,0,1,7.157.008l47.831,39.04-104.239.974" transform="translate(-158.138 460.943)" fill="#f03d5f"/>
        <path id="path196" d="M352.391-300.958l49.251-40.022a5.658,5.658,0,0,1,3.573-1.269,5.654,5.654,0,0,1,3.583,1.277l47.831,39.04-104.239.974" transform="translate(-158.138 460.943)" fill="#3730ad"/>
        <path id="path198" d="M351.215-174.8c-.13-.122,8.2-9.251,18.6-20.388s18.938-20.07,19.068-19.949-8.194,9.249-18.6,20.389-18.936,20.069-19.067,19.948" transform="translate(-157.61 403.902)" fill="#17282f"/>
        <path id="path200" d="M517.8-173.309c-.133.119-8.279-8.792-18.191-19.9S481.762-213.421,481.9-213.54s8.277,8.79,18.193,19.9,17.842,20.211,17.709,20.329" transform="translate(-216.254 403.185)" fill="#17282f"/>
        <path id="path202" d="M404.373-227.186l-15.134-11.923c.122-.154.18-.239.168-.25h0a1,1,0,0,0-.24.191l-36.772-28.968,104.239-.974-52.257,41.924" transform="translate(-158.138 428.121)" fill="#3730ad"/>
        <path id="path204" d="M419.175-214.889l-.076-.06a1,1,0,0,1,.24-.191h0c.012.011-.046.1-.168.25" transform="translate(-188.074 403.902)" fill="#0a1013"/>
        <path id="path206" d="M361.742-287.875l-.231-32.557,91.274-1.269,1.1,34.253-45.426,36.115-46.717-36.542" transform="translate(-162.231 451.722)" fill="#fafaf9"/>
        <path id="path208" d="M361.641-288.032s.3.218.865.65,1.4,1.081,2.489,1.919l9.448,7.336,34.013,26.513h-.194l45.405-36.139-.071.154c-.21-6.535-.431-13.39-.656-20.366-.151-4.7-.3-9.337-.445-13.887l.193.184-91.276,1.2.121-.124c.047,10.236.084,18.365.11,23.945.006,2.786.01,4.933.014,6.394q0,1.083,0,1.652c0,.372-.011.566-.011.566s-.013-.184-.02-.55-.015-.924-.027-1.64c-.018-1.457-.043-3.6-.076-6.378-.054-5.59-.132-13.734-.23-23.988v-.122h.122l91.273-1.336.187,0,.005.187c.147,4.549.3,9.19.448,13.886.223,6.977.443,13.831.652,20.366l0,.1-.074.059-45.446,36.089-.1.077-.1-.076-33.97-26.662-9.38-7.39-2.448-1.942c-.55-.44-.822-.671-.822-.671" transform="translate(-162.13 451.879)" fill="#17282f"/>
        <path id="path210" d="M450.224-291.962c0,.106-13.958.305-31.174.445s-31.178.168-31.179.063,13.954-.306,31.176-.446,31.176-.168,31.177-.062" transform="translate(-174.06 438.405)" fill="#17282f"/>
        <path id="path212" d="M450.257-275.279c0,.106-13.957.305-31.173.445s-31.178.169-31.18.062,13.955-.3,31.177-.445,31.175-.169,31.176-.063" transform="translate(-174.075 430.919)" fill="#17282f"/>
        <path id="path214" d="M450.3-256.052c0,.106-13.957.306-31.173.445s-31.178.169-31.179.062,13.954-.3,31.176-.445,31.175-.169,31.176-.063" transform="translate(-174.094 422.29)" fill="#17282f"/>
        <path id="path216" d="M452.671-236.824c0,.105-13.316.3-29.74.433s-29.746.157-29.746.051,13.313-.3,29.744-.434,29.742-.157,29.743-.051" transform="translate(-176.444 413.663)" fill="#17282f"/>
        <path id="path218" d="M450.656-219.921a1.382,1.382,0,0,1-.365.042l-1.049.044-3.856.1-12.72.231c-4.971.093-9.471.123-12.727.12l-3.857-.026-1.049-.026a1.332,1.332,0,0,1-.366-.035,1.338,1.338,0,0,1,.365-.042l1.048-.045,3.856-.1,12.723-.231c4.969-.093,9.469-.122,12.725-.119l3.857.026,1.049.026a1.32,1.32,0,0,1,.366.036" transform="translate(-186.085 406.087)" fill="#17282f"/>
        <path id="path220" d="M447.849-203.728a57.5,57.5,0,0,1-6.646.206,57.886,57.886,0,0,1-6.648-.178,58.168,58.168,0,0,1,6.647-.205,58.209,58.209,0,0,1,6.647.177" transform="translate(-195.01 398.861)" fill="#17282f"/>
        <path id="path222" d="M490.942-65.407c0,.107-109.91.192-245.459.192C109.886-65.216,0-65.3,0-65.407S109.886-65.6,245.483-65.6c135.549,0,245.459.086,245.459.191" transform="translate(0 336.794)" fill="#17282f"/>
        <path id="path224" d="M480.737-322.222c.105.011.15.43.1.934s-.176.906-.281.9-.15-.428-.1-.934.176-.907.281-.9" transform="translate(-215.599 451.956)" fill="#17282f"/>
        <path id="path226" d="M482.268-335.209a4.468,4.468,0,0,1-.084,1.815,4.434,4.434,0,0,1-.462,1.757,4.43,4.43,0,0,1,.084-1.815,4.412,4.412,0,0,1,.462-1.757" transform="translate(-216.15 457.784)" fill="#17282f"/>
        <path id="path228" d="M484.705-348.052a4.445,4.445,0,0,1-.2,1.805,4.439,4.439,0,0,1-.578,1.722,4.409,4.409,0,0,1,.2-1.805,4.419,4.419,0,0,1,.578-1.722" transform="translate(-217.145 463.547)" fill="#17282f"/>
        <path id="path230" d="M488.051-360.669a4.46,4.46,0,0,1-.34,1.785A4.456,4.456,0,0,1,487-357.21a4.394,4.394,0,0,1,.34-1.785,4.409,4.409,0,0,1,.706-1.674" transform="translate(-218.533 469.21)" fill="#17282f"/>
        <path id="path232" d="M492.4-372.951a4.458,4.458,0,0,1-.49,1.749,4.489,4.489,0,0,1-.845,1.609,4.393,4.393,0,0,1,.49-1.75,4.407,4.407,0,0,1,.845-1.608" transform="translate(-220.358 474.722)" fill="#17282f"/>
        <path id="path234" d="M497.832-384.751a4.461,4.461,0,0,1-.652,1.693,4.46,4.46,0,0,1-.992,1.52,4.4,4.4,0,0,1,.651-1.694c.456-.89.9-1.571.993-1.519" transform="translate(-222.66 480.017)" fill="#17282f"/>
        <path id="path236" d="M504.421-395.924a4.453,4.453,0,0,1-.847,1.606c-.531.841-1.036,1.479-1.126,1.424a4.429,4.429,0,0,1,.805-1.633c.556-.833,1.081-1.458,1.167-1.4" transform="translate(-225.472 485.032)" fill="#17282f"/>
        <path id="path238" d="M512.226-406.244c.08.07-.372.747-1.007,1.512s-1.218,1.332-1.3,1.267.368-.742,1.008-1.512,1.222-1.338,1.3-1.267" transform="translate(-228.825 489.664)" fill="#17282f"/>
        <path id="path240" d="M521.211-415.539c.07.079-.459.7-1.18,1.381s-1.368,1.177-1.443,1.1.453-.692,1.18-1.381,1.374-1.183,1.443-1.1" transform="translate(-232.717 493.837)" fill="#17282f"/>
        <path id="path242" d="M531.291-423.619c.059.087-.543.634-1.344,1.222a4.458,4.458,0,0,1-1.571.914c-.065-.083.537-.63,1.344-1.222a4.41,4.41,0,0,1,1.571-.913" transform="translate(-237.111 497.464)" fill="#17282f"/>
        <path id="path244" d="M542.378-430.261c.045.1-.625.556-1.5,1.029a4.469,4.469,0,0,1-1.68.692c-.055-.09.615-.551,1.5-1.029a4.405,4.405,0,0,1,1.68-.692" transform="translate(-241.969 500.447)" fill="#17282f"/>
        <path id="path246" d="M554.336-435.2a4.477,4.477,0,0,1-1.632.8,4.484,4.484,0,0,1-1.764.437,4.391,4.391,0,0,1,1.633-.8,4.373,4.373,0,0,1,1.763-.437" transform="translate(-247.238 502.669)" fill="#17282f"/>
        <path id="path248" d="M566.968-438.2a4.5,4.5,0,0,1-1.746.488,4.425,4.425,0,0,1-1.8.186,4.406,4.406,0,0,1,1.732-.562,4.359,4.359,0,0,1,1.817-.112" transform="translate(-252.839 504.025)" fill="#17282f"/>
        <path id="path250" d="M579.992-439.013a4.459,4.459,0,0,1-1.8.212,4.469,4.469,0,0,1-1.809-.171,4.407,4.407,0,0,1,1.8-.212,4.386,4.386,0,0,1,1.808.171" transform="translate(-258.655 504.444)" fill="#17282f"/>
        <path id="path252" d="M593.037-437.854a4.47,4.47,0,0,1-1.813-.1,4.467,4.467,0,0,1-1.754-.477,4.42,4.42,0,0,1,1.815.1,4.388,4.388,0,0,1,1.752.477" transform="translate(-264.529 504.131)" fill="#17282f"/>
        <path id="path254" d="M605.711-434.58a4.484,4.484,0,0,1-1.769-.411,4.488,4.488,0,0,1-1.644-.773,4.39,4.39,0,0,1,1.77.412,4.382,4.382,0,0,1,1.643.773" transform="translate(-270.285 502.922)" fill="#17282f"/>
        <path id="path256" d="M617.6-429.116a4.487,4.487,0,0,1-1.663-.729c-.862-.492-1.522-.967-1.474-1.061a4.388,4.388,0,0,1,1.664.729c.872.5,1.532.972,1.474,1.061" transform="translate(-275.744 500.737)" fill="#17282f"/>
        <path id="path258" d="M628.212-421.483c-.075.075-.739-.394-1.485-1.047s-1.3-1.252-1.232-1.335.729.386,1.485,1.047,1.306,1.26,1.232,1.335" transform="translate(-280.694 497.574)" fill="#17282f"/>
        <path id="path260" d="M635.974-413.26c-.086.062-.406-.211-.714-.609s-.493-.776-.41-.844.4.205.713.609.5.781.412.843" transform="translate(-284.885 493.466)" fill="#17282f"/>
        <path id="path262" d="M695.848-333.011a4.546,4.546,0,0,1-1.747-.6,4.548,4.548,0,0,1-1.586-.947,4.6,4.6,0,0,1,1.747.6,4.615,4.615,0,0,1,1.586.948" transform="translate(-310.771 457.501)" fill="#17282f"/>
        <path id="path264" d="M708.289-328.254a4.552,4.552,0,0,1-1.812-.354,4.555,4.555,0,0,1-1.7-.72,4.607,4.607,0,0,1,1.813.354,4.612,4.612,0,0,1,1.7.72" transform="translate(-316.273 455.158)" fill="#17282f"/>
        <path id="path266" d="M721.326-325.646a4.543,4.543,0,0,1-1.847-.011,4.528,4.528,0,0,1-1.8-.391,4.628,4.628,0,0,1,1.847.011,4.629,4.629,0,0,1,1.805.391" transform="translate(-322.062 453.707)" fill="#17282f"/>
        <path id="path268" d="M734.627-325.752a4.554,4.554,0,0,1-1.817.329,4.555,4.555,0,0,1-1.847-.053,4.627,4.627,0,0,1,1.818-.329,4.607,4.607,0,0,1,1.846.053" transform="translate(-328.026 453.584)" fill="#17282f"/>
        <path id="path270" d="M747.786-328.158a4.563,4.563,0,0,1-1.745.624,4.425,4.425,0,0,1-1.841.179,4.734,4.734,0,0,1,1.76-.553,4.6,4.6,0,0,1,1.826-.249" transform="translate(-333.966 454.636)" fill="#17282f"/>
        <path id="path272" d="M760.363-333.051a4.543,4.543,0,0,1-1.59.942,4.542,4.542,0,0,1-1.749.594,4.622,4.622,0,0,1,1.589-.942,4.66,4.66,0,0,1,1.75-.594" transform="translate(-339.72 456.824)" fill="#17282f"/>
        <path id="path274" d="M771.736-340.472c.069.079-.5.685-1.32,1.3a4.066,4.066,0,0,1-1.612.914c-.059-.09.577-.611,1.382-1.219a5.24,5.24,0,0,1,1.55-.994" transform="translate(-345.005 460.15)" fill="#17282f"/>
        <path id="path276" d="M781.286-350.2a4,4,0,0,1-.976,1.575c-.65.79-1.285,1.331-1.36,1.259s.424-.725,1.065-1.5,1.184-1.394,1.272-1.332" transform="translate(-349.556 464.514)" fill="#17282f"/>
        <path id="path278" d="M788.21-361.933a3.915,3.915,0,0,1-.512,1.782,3.934,3.934,0,0,1-.983,1.572,5.463,5.463,0,0,1,.634-1.728,5.534,5.534,0,0,1,.861-1.626" transform="translate(-353.037 469.777)" fill="#17282f"/>
        <path id="path280" d="M791.557-374.976a3.818,3.818,0,0,1,.083,1.854,3.8,3.8,0,0,1-.458,1.8,5.792,5.792,0,0,1,.078-1.837,5.7,5.7,0,0,1,.3-1.815" transform="translate(-355.027 475.63)" fill="#17282f"/>
        <path id="path282" d="M789.957-388.118a3.915,3.915,0,0,1,.662,1.732,3.888,3.888,0,0,1,.153,1.849,5.6,5.6,0,0,1-.526-1.763,5.541,5.541,0,0,1-.289-1.817" transform="translate(-354.485 481.528)" fill="#17282f"/>
        <path id="path284" d="M784.175-400.076c.084-.061.636.568,1.15,1.455a3.916,3.916,0,0,1,.7,1.718c-.1.046-.521-.657-1.029-1.526a5.609,5.609,0,0,1-.819-1.647" transform="translate(-351.899 486.895)" fill="#17282f"/>
        <path id="path286" d="M774.929-409.592a3.765,3.765,0,0,1,1.566.993c.777.672,1.283,1.338,1.208,1.408s-.7-.462-1.459-1.118-1.378-1.194-1.316-1.283" transform="translate(-347.754 491.169)" fill="#17282f"/>
        <path id="path288" d="M762.843-415.032a3.68,3.68,0,0,1,1.834.3,3.688,3.688,0,0,1,1.653.849,6.069,6.069,0,0,1-1.773-.485,6.143,6.143,0,0,1-1.714-.662" transform="translate(-342.332 493.624)" fill="#17282f"/>
        <path id="path290" d="M749.62-415.268a3.61,3.61,0,0,1,1.781-.533,3.644,3.644,0,0,1,1.857.054,6.191,6.191,0,0,1-1.808.325,6.305,6.305,0,0,1-1.83.154" transform="translate(-336.398 493.981)" fill="#17282f"/>
        <path id="path292" d="M738.124-410.163c-.077-.067.429-.75,1.257-1.374a3.448,3.448,0,0,1,1.659-.845c.051.1-.633.547-1.428,1.15s-1.407,1.143-1.487,1.069" transform="translate(-331.235 492.423)" fill="#17282f"/>
        <path id="path294" d="M732.791-399.274a3.362,3.362,0,0,1,.105-1.858,3.29,3.29,0,0,1,.772-1.694,7.652,7.652,0,0,1-.4,1.785,7.318,7.318,0,0,1-.477,1.767" transform="translate(-328.81 488.129)" fill="#17282f"/>
        <path id="path296" d="M734.444-386.277a3.549,3.549,0,0,1-.894-1.632,3.541,3.541,0,0,1-.307-1.836,6.589,6.589,0,0,1,.668,1.71,6.548,6.548,0,0,1,.533,1.757" transform="translate(-329.029 482.257)" fill="#17282f"/>
        <path id="path298" d="M741.93-375.523a3.659,3.659,0,0,1-1.568-1c-.773-.681-1.255-1.372-1.176-1.439s.678.49,1.43,1.152,1.377,1.192,1.315,1.282" transform="translate(-331.712 476.97)" fill="#17282f"/>
        <path id="path300" d="M753.445-369.1a3.851,3.851,0,0,1-1.823-.34,3.8,3.8,0,0,1-1.649-.849,5.749,5.749,0,0,1,1.773.487,5.68,5.68,0,0,1,1.7.7" transform="translate(-336.555 473.535)" fill="#17282f"/>
        <path id="path302" d="M766.515-367a3.932,3.932,0,0,1-1.841.217,3.922,3.922,0,0,1-1.83-.295,5.507,5.507,0,0,1,1.838-.088,5.494,5.494,0,0,1,1.833.166" transform="translate(-342.332 472.128)" fill="#17282f"/>
        <path id="path304" d="M779.673-369.3a3.987,3.987,0,0,1-1.716.694,3.981,3.981,0,0,1-1.84.211,5.377,5.377,0,0,1,1.745-.581,5.338,5.338,0,0,1,1.811-.324" transform="translate(-348.288 473.095)" fill="#17282f"/>
        <path id="path306" d="M792.016-374.828c.055.09-.631.551-1.535,1.028a4.5,4.5,0,0,1-1.713.689,4.648,4.648,0,0,1,1.534-1.028,4.639,4.639,0,0,1,1.713-.689" transform="translate(-353.965 475.57)" fill="#17282f"/>
        <path id="path308" d="M803.034-382.765c.072.078-.509.667-1.3,1.313s-1.479,1.1-1.541,1.018.519-.673,1.3-1.313a4.627,4.627,0,0,1,1.541-1.018" transform="translate(-359.091 479.129)" fill="#17282f"/>
        <path id="path310" d="M812.481-392.507c.084.065-.386.745-1.048,1.521s-1.263,1.346-1.34,1.273a4.635,4.635,0,0,1,1.049-1.521c.656-.767,1.255-1.337,1.339-1.272" transform="translate(-363.532 483.499)" fill="#17282f"/>
        <path id="path312" d="M820.208-403.63a4.552,4.552,0,0,1-.783,1.674c-.526.874-1.023,1.535-1.111,1.477a4.612,4.612,0,0,1,.783-1.674c.52-.865,1.018-1.526,1.11-1.476" transform="translate(-367.219 488.49)" fill="#17282f"/>
        <path id="path314" d="M826.047-415.811a4.545,4.545,0,0,1-.492,1.782c-.364.952-.761,1.679-.864,1.633a5.215,5.215,0,0,1,.509-1.775,4.611,4.611,0,0,1,.848-1.64" transform="translate(-370.078 493.955)" fill="#17282f"/>
        <path id="path316" d="M830.116-428.6a4.534,4.534,0,0,1-.276,1.827,4.53,4.53,0,0,1-.647,1.73,4.623,4.623,0,0,1,.276-1.827,4.614,4.614,0,0,1,.646-1.73" transform="translate(-372.091 499.696)" fill="#17282f"/>
        <path id="path318" d="M832.729-441.726a4.544,4.544,0,0,1-.089,1.845,4.542,4.542,0,0,1-.467,1.787,4.61,4.61,0,0,1,.089-1.845,4.611,4.611,0,0,1,.468-1.787" transform="translate(-373.418 505.584)" fill="#17282f"/>
        <path id="path320" d="M834.155-455a4.513,4.513,0,0,1,.055,1.846,4.554,4.554,0,0,1-.327,1.818,4.594,4.594,0,0,1-.054-1.847,4.579,4.579,0,0,1,.326-1.818" transform="translate(-374.167 511.541)" fill="#17282f"/>
        <path id="path322" d="M834.692-468.323a4.533,4.533,0,0,1,.156,1.841,4.574,4.574,0,0,1-.226,1.834,4.58,4.58,0,0,1-.156-1.841,4.617,4.617,0,0,1,.226-1.834" transform="translate(-374.472 517.52)" fill="#17282f"/>
        <path id="path324" d="M834.648-481.655a4.546,4.546,0,0,1,.218,1.835,4.556,4.556,0,0,1-.165,1.84,4.591,4.591,0,0,1-.217-1.835,4.6,4.6,0,0,1,.165-1.84" transform="translate(-374.48 523.503)" fill="#17282f"/>
        <path id="path326" d="M834.439-489.855c.105,0,.2.184.2.417s-.074.425-.179.428-.2-.184-.2-.418.074-.424.18-.427" transform="translate(-374.38 527.182)" fill="#17282f"/>
        <path id="path328" d="M826.786-495.732l-49.96,5.426-3.657-33.674,49.961-5.426,3.657,33.675" transform="translate(-346.966 544.932)" fill="#958eff"/>
        <path id="path330" d="M773.173-523.981l3.653,33.639,49.924-5.422L823.1-529.4Zm3.62,33.679v-.018l-3.659-33.693.018,0,49.979-5.428,0,.018,3.659,33.693-.018,0L776.793-490.3" transform="translate(-346.949 544.948)" fill="#17282f"/>
        <path id="path332" d="M823.5-528.7a3.52,3.52,0,0,1-.417.5l-1.258,1.37-4.694,4.984-15.648,16.365-.129.135-.158-.1-.381-.242-19.338-12.355-5.832-3.787-1.573-1.049a3.61,3.61,0,0,1-.531-.392,3.5,3.5,0,0,1,.581.314l1.619.978,5.91,3.665,19.41,12.242.381.243-.286.034,15.746-16.27,4.8-4.885,1.32-1.31a3.536,3.536,0,0,1,.482-.436" transform="translate(-347.131 544.617)" fill="#17282f"/>
        <path id="path334" d="M780.171-475.834c-.1-.071,3.151-5.095,7.271-11.22s7.545-11.037,7.651-10.967-3.15,5.093-7.272,11.221-7.545,11.036-7.649,10.966" transform="translate(-350.107 530.847)" fill="#17282f"/>
        <path id="path336" d="M837.283-502.057c.09-.088,4.3,4.092,9.4,9.334s9.167,9.564,9.076,9.653-4.3-4.091-9.4-9.334-9.165-9.564-9.075-9.652" transform="translate(-375.737 532.659)" fill="#17282f"/>
        <path id="path338" d="M449.861-344.192c.1-.018.258.374.342.875s.069.922-.035.939-.257-.373-.342-.875-.069-.921.035-.939" transform="translate(-201.838 461.815)" fill="#17282f"/>
        <path id="path340" d="M447.754-357.2a4.513,4.513,0,0,1,.478,1.763,4.466,4.466,0,0,1,.1,1.824,4.475,4.475,0,0,1-.478-1.763,4.467,4.467,0,0,1-.1-1.824" transform="translate(-200.908 467.653)" fill="#17282f"/>
        <path id="path342" d="M445.845-370.243a4.466,4.466,0,0,1,.441,1.772,4.469,4.469,0,0,1,.062,1.826,4.476,4.476,0,0,1-.44-1.773,4.481,4.481,0,0,1-.062-1.825" transform="translate(-200.048 473.506)" fill="#17282f"/>
        <path id="path344" d="M444.333-383.34a4.488,4.488,0,0,1,.38,1.787,4.489,4.489,0,0,1,0,1.827,4.464,4.464,0,0,1-.38-1.786,4.469,4.469,0,0,1,0-1.827" transform="translate(-199.362 479.383)" fill="#17282f"/>
        <path id="path346" d="M443.388-396.49a4.491,4.491,0,0,1,.293,1.8,4.472,4.472,0,0,1-.088,1.825,4.484,4.484,0,0,1-.294-1.8,4.458,4.458,0,0,1,.089-1.824" transform="translate(-198.922 485.284)" fill="#17282f"/>
        <path id="path348" d="M443.175-409.675a4.5,4.5,0,0,1,.181,1.819,4.5,4.5,0,0,1-.2,1.818,4.465,4.465,0,0,1-.181-1.82,4.463,4.463,0,0,1,.2-1.817" transform="translate(-198.787 491.201)" fill="#17282f"/>
        <path id="path350" d="M443.847-422.823a4.5,4.5,0,0,1,.04,1.826,4.484,4.484,0,0,1-.342,1.794,4.479,4.479,0,0,1-.04-1.826,4.458,4.458,0,0,1,.342-1.794" transform="translate(-199.003 497.102)" fill="#17282f"/>
        <path id="path352" d="M445.6-435.853a4.5,4.5,0,0,1-.128,1.822,4.515,4.515,0,0,1-.5,1.757,4.459,4.459,0,0,1,.127-1.823,4.437,4.437,0,0,1,.505-1.756" transform="translate(-199.657 502.949)" fill="#17282f"/>
        <path id="path354" d="M448.644-448.593a4.5,4.5,0,0,1-.334,1.8,4.508,4.508,0,0,1-.7,1.687,4.447,4.447,0,0,1,.334-1.8,4.456,4.456,0,0,1,.7-1.687" transform="translate(-200.853 508.667)" fill="#17282f"/>
        <path id="path356" d="M453.231-460.813a4.5,4.5,0,0,1-.556,1.74,4.491,4.491,0,0,1-.907,1.585,4.435,4.435,0,0,1,.557-1.74,4.453,4.453,0,0,1,.906-1.585" transform="translate(-202.725 514.151)" fill="#17282f"/>
        <path id="path358" d="M459.334-472.314a4.514,4.514,0,0,1-.773,1.654c-.516.856-1.009,1.509-1.1,1.458a4.434,4.434,0,0,1,.772-1.655c.52-.864,1.013-1.516,1.1-1.457" transform="translate(-205.282 519.312)" fill="#17282f"/>
        <path id="path360" d="M466.912-482.856a4.508,4.508,0,0,1-.99,1.534c-.628.778-1.2,1.357-1.289,1.3s.358-.75.99-1.535,1.21-1.364,1.289-1.293" transform="translate(-208.503 524.044)" fill="#17282f"/>
        <path id="path362" d="M475.954-492.122c.067.081-.475.694-1.212,1.367s-1.394,1.16-1.469,1.085.468-.686,1.212-1.367,1.4-1.166,1.469-1.085" transform="translate(-212.382 528.204)" fill="#17282f"/>
        <path id="path364" d="M486.42-499.7c.052.093-.587.6-1.429,1.139a4.515,4.515,0,0,1-1.634.816c-.061-.086.578-.6,1.429-1.138a4.444,4.444,0,0,1,1.634-.817" transform="translate(-216.908 531.607)" fill="#17282f"/>
        <path id="path366" d="M498.165-505.113a4.536,4.536,0,0,1-1.622.841,4.528,4.528,0,0,1-1.762.483,4.455,4.455,0,0,1,1.622-.84,4.453,4.453,0,0,1,1.762-.484" transform="translate(-222.036 534.041)" fill="#17282f"/>
        <path id="path368" d="M509.081-507.532c.016.1-.371.265-.865.359s-.914.088-.937-.016.364-.264.865-.359.921-.088.937.016" transform="translate(-227.645 535.153)" fill="#17282f"/>
        <path id="path370" d="M466.494-503.469,415.53-523.176l13.283-34.352,50.964,19.707-13.283,34.352" transform="translate(-186.472 557.551)" fill="#958eff"/>
        <path id="path372" d="M415.533-523.206l50.929,19.694,13.27-34.318L428.8-557.523Zm50.951,19.741-.017-.007-50.982-19.714.007-.017,13.29-34.369.017.007L479.78-537.85l-.007.017-13.289,34.369" transform="translate(-186.452 557.571)" fill="#17282f"/>
        <path id="path374" d="M490.6-536.957a3.742,3.742,0,0,1-.651.274l-1.9.695-7.023,2.469-23.285,7.993-.192.065-.1-.175c-.078-.134-.162-.28-.248-.425-4.874-8.412-9.284-16.024-12.509-21.59l-3.742-6.571-1-1.8a3.818,3.818,0,0,1-.317-.645,3.976,3.976,0,0,1,.4.594c.27.442.628,1.024,1.076,1.752l3.878,6.491c3.257,5.547,7.711,13.133,12.634,21.517.085.145.17.29.248.424l-.294-.109,23.332-7.853,7.074-2.322,1.929-.606a3.8,3.8,0,0,1,.684-.18" transform="translate(-197.287 557.164)" fill="#17282f"/>
        <path id="path376" d="M415.534-505.729c-.066-.12,5.587-3.347,12.625-7.206s12.8-6.893,12.865-6.772-5.586,3.346-12.626,7.207-12.8,6.892-12.864,6.772" transform="translate(-186.474 540.581)" fill="#17282f"/>
        <path id="path378" d="M492.805-508.6c.13-.04,2.11,6.1,4.419,13.71s4.078,13.815,3.947,13.855-2.11-6.1-4.421-13.711-4.077-13.814-3.945-13.854" transform="translate(-221.147 535.595)" fill="#17282f"/>
        <path id="path380" d="M410.877-329.6c.106.007.158.425.117.933s-.16.911-.265.9-.157-.427-.116-.932.16-.908.265-.9" transform="translate(-184.259 455.266)" fill="#17282f"/>
        <path id="path382" d="M411.284-343.156a4.7,4.7,0,0,1,.187,1.87,4.708,4.708,0,0,1-.2,1.869,4.758,4.758,0,0,1-.187-1.87,4.749,4.749,0,0,1,.2-1.869" transform="translate(-184.479 461.35)" fill="#17282f"/>
        <path id="path384" d="M410.451-356.689a4.694,4.694,0,0,1,.362,1.843,4.733,4.733,0,0,1-.018,1.88,4.747,4.747,0,0,1-.363-1.845,4.759,4.759,0,0,1,.019-1.879" transform="translate(-184.155 467.423)" fill="#17282f"/>
        <path id="path386" d="M408.222-370.063a4.711,4.711,0,0,1,.547,1.8,4.711,4.711,0,0,1,.172,1.872,4.769,4.769,0,0,1-.548-1.8,4.767,4.767,0,0,1-.171-1.872" transform="translate(-183.172 473.425)" fill="#17282f"/>
        <path id="path388" d="M404.55-383.117a4.711,4.711,0,0,1,.741,1.728,4.688,4.688,0,0,1,.376,1.842,4.789,4.789,0,0,1-.741-1.727,4.761,4.761,0,0,1-.376-1.843" transform="translate(-181.532 479.284)" fill="#17282f"/>
        <path id="path390" d="M399.373-395.642a4.7,4.7,0,0,1,.942,1.626,4.705,4.705,0,0,1,.593,1.783,4.762,4.762,0,0,1-.942-1.626,4.791,4.791,0,0,1-.593-1.784" transform="translate(-179.213 484.905)" fill="#17282f"/>
        <path id="path392" d="M392.643-407.411c.087-.059.616.6,1.172,1.475a4.715,4.715,0,0,1,.793,1.71c-.092.051-.592-.624-1.119-1.509a4.809,4.809,0,0,1-.847-1.676" transform="translate(-176.196 490.187)" fill="#17282f"/>
        <path id="path394" d="M384.339-418.129c.079-.071.681.517,1.345,1.313s1.134,1.494,1.05,1.559-.686-.524-1.344-1.314a4.785,4.785,0,0,1-1.051-1.558" transform="translate(-172.471 494.998)" fill="#17282f"/>
        <path id="path396" d="M374.6-427.565c.068-.082.746.415,1.516,1.11s1.335,1.319,1.26,1.394a4.768,4.768,0,0,1-1.516-1.11c-.764-.689-1.328-1.313-1.26-1.394" transform="translate(-168.103 499.233)" fill="#17282f"/>
        <path id="path398" d="M363.6-435.5a4.7,4.7,0,0,1,1.663.877c.864.575,1.513,1.111,1.45,1.2a4.778,4.778,0,0,1-1.663-.877c-.856-.57-1.5-1.1-1.45-1.2" transform="translate(-163.169 502.794)" fill="#17282f"/>
        <path id="path400" d="M351.526-441.66a4.712,4.712,0,0,1,1.779.609,4.714,4.714,0,0,1,1.619.956,4.758,4.758,0,0,1-1.779-.609,4.775,4.775,0,0,1-1.618-.957" transform="translate(-157.749 505.564)" fill="#17282f"/>
        <path id="path402" d="M338.6-445.76a4.715,4.715,0,0,1,1.855.3,4.681,4.681,0,0,1,1.755.672,4.775,4.775,0,0,1-1.855-.3,4.774,4.774,0,0,1-1.755-.672" transform="translate(-151.95 507.41)" fill="#17282f"/>
        <path id="path404" d="M325.162-447.544a4.666,4.666,0,0,1,1.882-.084,4.716,4.716,0,0,1,1.844.385,4.734,4.734,0,0,1-1.875,0,4.817,4.817,0,0,1-1.851-.3" transform="translate(-145.919 508.246)" fill="#17282f"/>
        <path id="path406" d="M311.643-446.936a4.7,4.7,0,0,1,1.835-.409,4.7,4.7,0,0,1,1.879-.03,4.784,4.784,0,0,1-1.834.41,4.779,4.779,0,0,1-1.879.029" transform="translate(-139.852 508.151)" fill="#17282f"/>
        <path id="path408" d="M298.546-443.978a4.693,4.693,0,0,1,1.724-.747,4.667,4.667,0,0,1,1.84-.383,4.81,4.81,0,0,1-1.725.748,4.761,4.761,0,0,1-1.84.383" transform="translate(-133.974 507.116)" fill="#17282f"/>
        <path id="path410" d="M286.333-438.617c-.055-.09.64-.564,1.553-1.059a4.685,4.685,0,0,1,1.736-.722,4.792,4.792,0,0,1-1.553,1.058,4.816,4.816,0,0,1-1.736.722" transform="translate(-128.493 504.996)" fill="#17282f"/>
        <path id="path412" d="M275.5-430.972c-.073-.077.514-.679,1.313-1.344s1.5-1.136,1.558-1.051-.525.687-1.313,1.345a4.8,4.8,0,0,1-1.558,1.05" transform="translate(-123.63 501.838)" fill="#17282f"/>
        <path id="path414" d="M266.631-421.193a4.17,4.17,0,0,1,.95-1.629c.635-.823,1.258-1.4,1.337-1.329a5.479,5.479,0,0,1-1.035,1.563c-.628.811-1.164,1.454-1.252,1.394" transform="translate(-119.647 497.7)" fill="#17282f"/>
        <path id="path416" d="M261.663-411.325c-.1-.043.006-.451.229-.911s.48-.793.574-.743-.01.456-.229.91-.477.786-.573.744" transform="translate(-117.407 492.686)" fill="#17282f"/>
        <path id="path418" d="M176.974-331.559c-.007-.106.391-.24.889-.3s.917-.025.935.079-.379.239-.889.3-.928.026-.935-.079" transform="translate(-79.418 456.294)" fill="#17282f"/>
        <path id="path420" d="M163.767-332.814a5.818,5.818,0,0,1,1.823.273,5.864,5.864,0,0,1,1.779.481,3.791,3.791,0,0,1-1.857-.107,3.808,3.808,0,0,1-1.744-.647" transform="translate(-73.491 456.723)" fill="#17282f"/>
        <path id="path422" d="M151.83-338.7a5.51,5.51,0,0,1,1.646.835c.865.518,1.564.952,1.517,1.049a3.929,3.929,0,0,1-1.713-.72c-.882-.526-1.51-1.079-1.449-1.163" transform="translate(-68.133 459.356)" fill="#17282f"/>
        <path id="path424" d="M141.9-347.6c.081-.071.684.492,1.4,1.21s1.266,1.328,1.2,1.408-.748-.409-1.468-1.138-1.2-1.411-1.124-1.48" transform="translate(-63.676 463.348)" fill="#17282f"/>
        <path id="path426" d="M134.057-358.4c.091-.053.615.59,1.169,1.435a4.642,4.642,0,0,1,.849,1.645c-.085.063-.609-.579-1.169-1.435a4.568,4.568,0,0,1-.849-1.645" transform="translate(-60.153 468.193)" fill="#17282f"/>
        <path id="path428" d="M128.29-370.443a4.627,4.627,0,0,1,.9,1.618,4.641,4.641,0,0,1,.546,1.77,4.551,4.551,0,0,1-.9-1.619,4.564,4.564,0,0,1-.546-1.769" transform="translate(-57.561 473.596)" fill="#17282f"/>
        <path id="path430" d="M124.447-383.238a4.63,4.63,0,0,1,.653,1.732,4.628,4.628,0,0,1,.283,1.83,4.56,4.56,0,0,1-.653-1.732,4.585,4.585,0,0,1-.283-1.83" transform="translate(-55.83 479.338)" fill="#17282f"/>
        <path id="path432" d="M122.109-396.4a4.62,4.62,0,0,1,.465,1.793,4.629,4.629,0,0,1,.086,1.85,4.571,4.571,0,0,1-.465-1.793,4.583,4.583,0,0,1-.086-1.85" transform="translate(-54.77 485.242)" fill="#17282f"/>
        <path id="path434" d="M120.8-409.7a4.6,4.6,0,0,1,.34,1.82,4.623,4.623,0,0,1-.042,1.852,4.592,4.592,0,0,1-.34-1.821,4.594,4.594,0,0,1,.042-1.851" transform="translate(-54.167 491.212)" fill="#17282f"/>
        <path id="path436" d="M120.2-419.71c.106,0,.211.4.235.908s-.042.922-.148.928-.211-.4-.235-.909.042-.922.147-.927" transform="translate(-53.871 495.704)" fill="#17282f"/>
        <path id="path438" d="M122.712-459.354,61.6-456.473l-1.941-41.193,61.114-2.88,1.942,41.193" transform="translate(-26.771 531.981)" fill="#958eff"/>
        <path id="path440" d="M59.659-497.665l1.94,41.156,61.078-2.879-1.94-41.156Zm1.9,41.2v-.019L59.621-497.7h.019l61.133-2.882v.019l1.943,41.211H122.7L61.564-456.47" transform="translate(-26.755 531.997)" fill="#17282f"/>
        <path id="path442" d="M121.167-499.666a4.308,4.308,0,0,1-.543.575l-1.632,1.571-6.074,5.708L92.687-473.088l-.166.154-.184-.134-.446-.323-22.581-16.45L62.5-494.877l-1.834-1.392a4.368,4.368,0,0,1-.617-.516,4.256,4.256,0,0,1,.683.425l1.895,1.308,6.909,4.894L92.216-473.84l.446.323-.351.021,20.342-18.6,6.194-5.579,1.7-1.495a4.2,4.2,0,0,1,.619-.493" transform="translate(-26.948 531.586)" fill="#17282f"/>
        <path id="path444" d="M63.573-440.758c-.122-.093,4.208-5.957,9.669-13.095s9.99-12.851,10.112-12.758-4.207,5.955-9.67,13.1-9.989,12.85-10.111,12.757" transform="translate(-28.527 516.752)" fill="#17282f"/>
        <path id="path446" d="M136.265-469.283c.117-.1,4.922,5.291,10.732,12.041s10.428,12.3,10.312,12.4-4.921-5.29-10.733-12.041-10.427-12.3-10.311-12.4" transform="translate(-61.149 517.951)" fill="#17282f"/>
        <path id="path448" d="M232.995-238.234a1.671,1.671,0,0,0-1.268-1.863l-1.638.113-5.859-2.04a1.753,1.753,0,0,0-2.217,1.595c-.033,1.685-.7,6.271-2.07,4.83l-.1-.094c-1.932-2.156-4.17-3.2-5.033-3.072a.978.978,0,0,0-.42,1.732,1.039,1.039,0,0,0,.348.243l.2.105a14.5,14.5,0,0,1,2.239,2,7.668,7.668,0,0,1,1.474,2.229c.4.908.7,1.708.941,2.389l.092,5.387-2.34,25.188s-15.505-16.285-15.145-16.445l.89,25.351,9.392,7.772a11.813,11.813,0,0,0,14,.781,11.812,11.812,0,0,0,5.337-10.078l-.542-32.569.382-4.272,1.335-9.284" transform="translate(-90.734 415.992)" fill="#bc6752"/>
        <path id="path450" d="M60.83-170.15,43.865-131.31,30.437-103.3l-9.973,3.355s-7.893,2.291-7.893,3.925,2.082,1.261,2.082,1.261c.383,2.439,3.76,1.056,6.126-.039S28.4-96.106,28.4-96.106a2.14,2.14,0,0,0-.147,3.426c.835.587,2.293-.123,3.282-1.176s3.526-1.541,6.353-2.549,3.293-4.81,3.293-4.81l33.98-57.236L60.83-170.15" transform="translate(-5.641 383.713)" fill="#bc6752"/>
        <path id="path452" d="M148.4-175.1l4.273,5.643,9.251-20.53s-8.981-10.959-12.265-15.556c-3.256-4.556-5.7-5.349-5.7-5.349s-5.966-1.772-8.948-1.71l-14.741.879L105.3-205.185a20.73,20.73,0,0,0-9.015,7.589l-14.1,22.645,19.961,8.533,6.694,38.273c1.285,5.74,2.407,11.156,7.706,13.8l37.024-35.581-4.337-6.832L148.4-175.1" transform="translate(-36.882 402.763)" fill="#6c63ff"/>
        <path id="path454" d="M129.541-157.3c.087.059-2.194,3.606-5.1,7.921s-5.326,7.767-5.413,7.709,2.193-3.605,5.1-7.922,5.325-7.766,5.413-7.707" transform="translate(-53.415 377.946)" fill="#17282f"/>
        <path id="path456" d="M172.981-91.391A6.643,6.643,0,0,1,172-90.8c-.645.356-1.585.857-2.754,1.463-2.338,1.213-5.593,2.838-9.228,4.551s-6.963,3.189-9.386,4.22c-1.212.516-2.2.923-2.882,1.193a6.43,6.43,0,0,1-1.078.385,6.7,6.7,0,0,1,1.019-.521l2.832-1.3c2.393-1.093,5.7-2.606,9.331-4.318s6.9-3.3,9.27-4.447l2.808-1.354a6.509,6.509,0,0,1,1.052-.455" transform="translate(-65.818 348.37)" fill="#17282f"/>
        <path id="path458" d="M127.116-179.146a12.58,12.58,0,0,1-1.3-1.635,26.29,26.29,0,0,0-3.289-3.749,11.581,11.581,0,0,0-4.239-2.5c-1.216-.377-2.024-.367-2.02-.437a1.446,1.446,0,0,1,.565-.044,6.86,6.86,0,0,1,1.528.221,10.7,10.7,0,0,1,4.421,2.471,21.042,21.042,0,0,1,3.252,3.877,10.233,10.233,0,0,1,1.078,1.793" transform="translate(-52.178 391.502)" fill="#17282f"/>
        <path id="path460" d="M172.268-138.5a1.616,1.616,0,0,1,.018.406c-.007.266,0,.66-.037,1.164a27.988,27.988,0,0,1-.589,4.243,30.819,30.819,0,0,1-6.02,12.7,30.8,30.8,0,0,1-11.089,8.634,28.042,28.042,0,0,1-4.014,1.5c-.484.149-.87.223-1.128.288a1.724,1.724,0,0,1-.4.071,15.647,15.647,0,0,1,1.485-.5,33.018,33.018,0,0,0,3.943-1.6,31.72,31.72,0,0,0,10.9-8.628,31.729,31.729,0,0,0,6.056-12.515,33.142,33.142,0,0,0,.706-4.2c.1-1,.134-1.559.167-1.557" transform="translate(-66.868 369.51)" fill="#17282f"/>
        <path id="path462" d="M121.049-113.663l-2.51-14.354,2.51,14.352v0" transform="translate(-53.195 364.805)" fill="#a7a9a8"/>
        <path id="path464" d="M121.048-122.159l-2.51-14.352.538-.807c.713-.919,2.77-3.875,5.149-7.413.516-.767,1.013-1.51,1.48-2.214-.655,3.393-4.7,24.369-4.656,24.786" transform="translate(-53.195 373.299)" fill="#3730ad"/>
        <path id="path466" d="M119.513-137.694l6.718-10.089-.089.462c-.467.7-.963,1.446-1.48,2.214-2.379,3.538-4.436,6.494-5.149,7.413" transform="translate(-53.632 373.675)" fill="#0f191d"/>
        <path id="path468" d="M200.566-187.894a1.832,1.832,0,0,1,.053.428c.021.323.046.73.077,1.23.057,1.119.134,2.652.228,4.522.187,3.867.442,9.119.723,14.924.277,5.83.5,11.11.611,14.933.057,1.912.094,3.459.107,4.528,0,.5,0,.909.005,1.233a1.893,1.893,0,0,1-.024.43,1.809,1.809,0,0,1-.054-.428c-.021-.323-.046-.73-.077-1.23-.057-1.119-.134-2.651-.228-4.523-.187-3.866-.442-9.12-.723-14.926-.277-5.828-.5-11.107-.611-14.931-.057-1.912-.094-3.459-.106-4.528,0-.5,0-.909-.006-1.233a1.811,1.811,0,0,1,.024-.43" transform="translate(-89.995 391.675)" fill="#17282f"/>
        <path id="path470" d="M146.349-85.509l-.017-.015.19-.066-.173.081m-.062-.054c-1.113-1.005-.834-2.964.193-4.077a9.111,9.111,0,0,1,4.064-2.095c7.036-2.278,14.108-5.5,18.75-11.258a11.063,11.063,0,0,1,2.079-2.236,3.338,3.338,0,0,1,1.873-.637,2.181,2.181,0,0,1,1.014.237c1.422.739,1.475,2.8.878,4.287a8.238,8.238,0,0,1-2.653,3.465s.005-.007,0-.009,0,0-.007,0a8.479,8.479,0,0,0-1.044.456l-2.808,1.354c-2.367,1.15-5.638,2.735-9.27,4.447s-6.938,3.225-9.331,4.318l-2.832,1.3c-.445.209-.755.36-.908.445M170.5-96.755c.387-.207.723-.389,1-.543.454-.252.762-.428.9-.519a8.057,8.057,0,0,1-1.148.71l-.756.352" transform="translate(-65.326 354.864)" fill="#3730ad"/>
        <path id="path472" d="M146.915-79.029c-.015-.012-.03-.026-.045-.039.154-.085.464-.237.908-.445l2.832-1.3c2.393-1.093,5.7-2.606,9.331-4.318s6.9-3.3,9.27-4.447l2.808-1.354a8.482,8.482,0,0,1,1.044-.456s.007,0,.007,0,0,.005,0,.009l-.079.06c-.139.091-.447.267-.9.519-.28.154-.616.336-1,.543L147.105-79.1l-.19.066" transform="translate(-65.909 348.37)" fill="#111d23"/>
        <path id="path474" d="M202.981-143.677l-.168-.223h0l.168.222h0" transform="translate(-91.014 371.932)" fill="#111d23"/>
        <path id="path476" d="M203.275-143.289l-.157-.207h0l.157.208" transform="translate(-91.151 371.752)" fill="#bfc0be"/>
        <path id="path478" d="M205.106-155.27l-2.709-3.576-.157-.208-.168-.222c-.046-1.027-.1-2.079-.146-3.148-.281-5.8-.536-11.057-.723-14.924-.014-.279-.027-.551-.041-.816l3.945,22.893" transform="translate(-90.272 387.309)" fill="#3730ad"/>
        <path id="path480" d="M201.939-160.047l-.166-.22-.908-19.615.163.947c.014.265.027.537.041.816.187,3.867.442,9.119.723,14.924.051,1.069.1,2.121.146,3.148h0" transform="translate(-90.139 388.08)" fill="#111d23"/>
        <path id="path482" d="M266.122-66.269l-6.947,23.825,29.6,8.794c.667-2.878-12.959-13.1-12.959-13.1l5.077-15.082-14.77-4.432" transform="translate(-116.307 337.095)" fill="#6c63ff"/>
        <path id="path484" d="M272.334-35.76H272.3a1.211,1.211,0,0,1-1.111-1.244,1.266,1.266,0,0,1,1.127-1.127.767.767,0,0,1,.147-.014,1.31,1.31,0,0,1,1.15,1.182,1.331,1.331,0,0,1-1.277,1.2" transform="translate(-121.696 324.475)" fill="#f3f1ff"/>
        <path id="path486" d="M288.773-14.254l-29.6-8.794,29.6,8.794a2.443,2.443,0,0,0-.521-1.653c.308.326.83,1.011.521,1.653" transform="translate(-116.307 317.699)" fill="#f0f0ee"/>
        <path id="path488" d="M288.773-16.187l-29.6-8.794.794-2.374,28.082,9.32a2.775,2.775,0,0,1,.2.195,2.443,2.443,0,0,1,.521,1.653" transform="translate(-116.307 319.632)" fill="#f3f1ff"/>
        <path id="path490" d="M287.72-31.175c-.048.142-.789-.007-1.639.247-.856.231-1.408.748-1.524.651-.124-.067.348-.867,1.381-1.156s1.853.135,1.782.258" transform="translate(-127.688 321.508)" fill="#17282f"/>
        <path id="path492" d="M293.155-27c-.008.15-.708.209-1.38.675-.686.445-1.006,1.07-1.148,1.02-.143-.017.009-.894.856-1.456s1.71-.379,1.672-.239" transform="translate(-130.399 319.538)" fill="#17282f"/>
        <path id="path494" d="M296.388-20.964c-.14-.008-.127-.79.479-1.471s1.376-.8,1.4-.656c.046.143-.518.437-1.008,1s-.725,1.152-.872,1.124" transform="translate(-132.973 317.743)" fill="#17282f"/>
        <path id="path496" d="M289.175-38.213c-.1.113-.7-.283-1.537-.471-.83-.2-1.547-.119-1.585-.264-.053-.13.727-.48,1.706-.246s1.521.889,1.416.981" transform="translate(-128.367 324.98)" fill="#17282f"/>
        <path id="path498" d="M289.063-46.977a2.9,2.9,0,0,1-1.479-.448,6.964,6.964,0,0,1-1.41-.937,7.413,7.413,0,0,1-.717-.7,1.922,1.922,0,0,1-.344-.482.658.658,0,0,1,.162-.789.828.828,0,0,1,.732-.142,2.025,2.025,0,0,1,.533.242,5.579,5.579,0,0,1,.828.59,5.455,5.455,0,0,1,1.1,1.3,2.577,2.577,0,0,1,.514,1.462c-.079.028-.279-.523-.822-1.256a6.148,6.148,0,0,0-1.1-1.137,5.7,5.7,0,0,0-.773-.516c-.289-.176-.555-.257-.677-.141-.045.045-.055.064-.016.175a1.507,1.507,0,0,0,.253.353,8.139,8.139,0,0,0,.65.681,8.513,8.513,0,0,0,1.27.974,10.68,10.68,0,0,1,1.3.772" transform="translate(-127.917 330.023)" fill="#17282f"/>
        <path id="path500" d="M291.806-47.4a2.461,2.461,0,0,1,.034-1.548,5.051,5.051,0,0,1,.685-1.563,5.061,5.061,0,0,1,.645-.787,1.278,1.278,0,0,1,1.168-.468.725.725,0,0,1,.5.6,2.1,2.1,0,0,1-.01.588,3.439,3.439,0,0,1-.3,1,3.557,3.557,0,0,1-1.087,1.343c-.807.6-1.461.588-1.459.536-.026-.087.56-.215,1.222-.822a3.545,3.545,0,0,0,.883-1.253,3.194,3.194,0,0,0,.228-.865c.046-.328,0-.617-.123-.62-.147-.046-.467.117-.663.332a5.117,5.117,0,0,0-.606.694,5.562,5.562,0,0,0-.726,1.394c-.3.856-.305,1.444-.39,1.442" transform="translate(-130.908 330.594)" fill="#17282f"/>
        <path id="path502" d="M245.737-136.9c.75,5.5-1.132,11.7-3.12,16.875l-12.981,30.52L215.27-91.713a18.493,18.493,0,0,1-6.825,4.611c-1.713.571-7.349,1.679-11.985-1.66,0,0-6.564,9.143-16.891,11.909s-25.963,4.289-33.532-7.792l36.033-34.724c.743.179,31.037-20.252,47.4-24.9,0,0,14.889-2.739,16.267,7.369" transform="translate(-65.534 372.251)" fill="#17282f"/>
        <path id="path504" d="M236.353-73.931a1.066,1.066,0,0,1,.195-.118l.588-.311c.517-.273,1.285-.666,2.256-1.2a37.324,37.324,0,0,0,3.435-2.119,17.92,17.92,0,0,0,3.89-3.606,12.5,12.5,0,0,0,2.523-5.834,19.579,19.579,0,0,0-.307-7.342,11.85,11.85,0,0,0-3.965-6.9,14.961,14.961,0,0,0-8.114-2.888,25.156,25.156,0,0,0-4.448.038,33.469,33.469,0,0,0-4.265.749,50.521,50.521,0,0,0-7.753,2.682c-4.8,2.1-8.973,4.363-12.634,5.928a45.17,45.17,0,0,1-8.93,2.981c-.543.122-1.032.2-1.455.265s-.782.118-1.074.143l-.663.065a1.106,1.106,0,0,1-.227.009.969.969,0,0,1,.223-.049l.657-.1c.29-.038.647-.093,1.065-.179s.9-.164,1.443-.3a47.482,47.482,0,0,0,8.853-3.084c3.636-1.591,7.783-3.878,12.6-6a50.273,50.273,0,0,1,7.8-2.722,33.487,33.487,0,0,1,4.317-.764,25.326,25.326,0,0,1,4.519-.04,15.282,15.282,0,0,1,8.314,2.976,10.492,10.492,0,0,1,2.7,3.284,15.118,15.118,0,0,1,1.373,3.832,19.8,19.8,0,0,1,.276,7.473,12.725,12.725,0,0,1-2.622,5.947,17.909,17.909,0,0,1-3.981,3.616,34.66,34.66,0,0,1-3.487,2.073c-.985.519-1.764.89-2.292,1.141l-.606.278a1.014,1.014,0,0,1-.212.082" transform="translate(-87.689 354.348)" fill="#33535f"/>
        <path id="path506" d="M280.873-121.517a43.67,43.67,0,0,1-3.011,4.913,43.615,43.615,0,0,1-3.33,4.7,43.46,43.46,0,0,1,3.01-4.913,43.465,43.465,0,0,1,3.331-4.7" transform="translate(-123.196 361.888)" fill="#33535f"/>
        <path id="path508" d="M253.156-53.275a26.66,26.66,0,0,1-2.611.673c-1.613.4-3.826,1.011-6.218,1.847s-4.5,1.74-6.014,2.433a26.528,26.528,0,0,1-2.461,1.1,2.638,2.638,0,0,1,.606-.4c.4-.24.994-.564,1.737-.942a49.905,49.905,0,0,1,6.006-2.55,49.992,49.992,0,0,1,6.284-1.751c.817-.167,1.483-.285,1.946-.347a2.641,2.641,0,0,1,.725-.062" transform="translate(-105.84 331.269)" fill="#33535f"/>
        <path id="path510" d="M289.218-52.1c-.066.022-.239-.652-.848-1.55a6.468,6.468,0,0,0-3.276-2.5,6.464,6.464,0,0,0-4.12.1c-1.02.37-1.556.813-1.6.756-.015-.018.1-.147.348-.342a5.2,5.2,0,0,1,1.15-.666,6.26,6.26,0,0,1,4.336-.211A6.266,6.266,0,0,1,288.6-53.8a5.222,5.222,0,0,1,.539,1.214c.085.3.1.476.081.481" transform="translate(-125.372 332.849)" fill="#33535f"/>
        <path id="path512" d="M177.224-68.937a2.316,2.316,0,0,1,.187.687,10.7,10.7,0,0,1,.165,1.934,11.911,11.911,0,0,1-1.694,6.138,9.373,9.373,0,0,1-4.922,4,6.982,6.982,0,0,1-1.912.367,2.081,2.081,0,0,1-.711-.034,13.846,13.846,0,0,0,2.534-.589,9.569,9.569,0,0,0,4.686-3.946,12.505,12.505,0,0,0,1.75-5.943c.065-1.61-.151-2.6-.082-2.614" transform="translate(-75.542 338.292)" fill="#33535f"/>
        <path id="path514" d="M153.991-40.493c-.082.066-.462-.268-.82-.767s-.55-.972-.457-1.026.416.314.768.8.592.922.509.989" transform="translate(-68.521 326.334)" fill="#33535f"/>
        <path id="path516" d="M159.241-34.488c-.069.079-.484-.2-.924-.628s-.736-.83-.659-.9.491.209.925.628.727.823.658.9" transform="translate(-70.745 323.525)" fill="#33535f"/>
        <path id="path518" d="M165.5-29.546c-.052.093-.513-.1-1.028-.44s-.883-.676-.821-.761.523.112,1.029.44.872.669.82.761" transform="translate(-73.436 321.163)" fill="#33535f"/>
        <path id="path520" d="M172.652-26.039c-.029.1-.522.015-1.1-.195s-1.014-.458-.972-.555.537-.009,1.1.195,1,.453.972.555" transform="translate(-76.547 319.396)" fill="#33535f"/>
        <path id="path522" d="M180.437-24.418c0,.105-.5.146-1.114.09s-1.1-.186-1.08-.291.517-.145,1.114-.09,1.081.186,1.08.291" transform="translate(-79.988 318.455)" fill="#33535f"/>
        <path id="path524" d="M188.414-24.7c.013.105-.476.224-1.091.266a4.567,4.567,0,0,1-.825-.009h.015c-.182-.015-.291-.048-.3-.1s.1-.1.268-.156h.015a4.646,4.646,0,0,1,.806-.119c.6-.04,1.094.012,1.107.117" transform="translate(-83.567 318.5)" fill="#33535f"/>
        <path id="path526" d="M196.307-26.068c.026.1-.438.289-1.036.417s-1.1.148-1.116.043.445-.292,1.036-.417,1.091-.146,1.116-.043" transform="translate(-87.128 319.084)" fill="#33535f"/>
        <path id="path528" d="M204-28.378c.037.1-.4.337-.984.531s-1.075.27-1.105.168.41-.34.984-.532,1.069-.267,1.105-.168" transform="translate(-90.607 320.111)" fill="#33535f"/>
        <path id="path530" d="M211.42-31.49c.046.095-.367.377-.924.63s-1.041.38-1.082.282.373-.379.924-.63,1.035-.377,1.082-.282" transform="translate(-93.975 321.502)" fill="#33535f"/>
        <path id="path532" d="M218.508-35.328c.055.09-.328.412-.856.719s-1,.481-1.048.388.332-.414.856-.719.993-.478,1.049-.388" transform="translate(-97.2 323.221)" fill="#33535f"/>
        <path id="path534" d="M225.2-39.829c.064.085-.287.441-.784.8s-.947.575-1.007.487.292-.444.784-.8.943-.571,1.007-.487" transform="translate(-100.255 325.238)" fill="#33535f"/>
        <path id="path536" d="M231.46-44.916c.072.078-.245.466-.708.866s-.891.658-.958.576.25-.469.708-.866.888-.654.958-.576" transform="translate(-103.117 327.519)" fill="#33535f"/>
        <path id="path538" d="M237.325-50.407c.07.079-.232.48-.673.9s-.862.689-.934.617.225-.476.672-.9.865-.7.935-.616" transform="translate(-105.775 329.983)" fill="#33535f"/>
        <path id="path540" d="M243.5-55.328c.059.088-.292.448-.782.8s-.941.576-1.006.493.284-.442.782-.8.948-.58,1.006-.492" transform="translate(-108.467 332.194)" fill="#33535f"/>
        <path id="path542" d="M250.358-59.2c.041.1-.364.394-.9.661s-1.022.41-1.075.318.353-.388.9-.661,1.033-.415,1.075-.318" transform="translate(-111.459 333.938)" fill="#33535f"/>
        <path id="path544" d="M257.856-61.6c.018.1-.44.307-1.024.453s-1.083.182-1.116.082.426-.3,1.024-.453,1.1-.186,1.116-.082" transform="translate(-114.754 335.027)" fill="#33535f"/>
        <path id="path546" d="M265.776-62.162c-.012.106-.5.141-1.1.132s-1.093-.065-1.1-.172.488-.223,1.106-.211,1.109.146,1.1.251" transform="translate(-118.279 335.365)" fill="#33535f"/>
        <path id="path548" d="M273.587-60.587c-.049.093-.518-.047-1.083-.244s-1.018-.4-.992-.5.534-.069,1.12.139,1,.512.955.606" transform="translate(-121.842 334.904)" fill="#33535f"/>
        <path id="path550" d="M273.584-55.477c-.067-.085.263-.448.654-.888s.708-.81.8-.756-.095.539-.517,1.01-.877.714-.939.633" transform="translate(-122.769 332.992)" fill="#33535f"/>
        <path id="path552" d="M266.527-51.18c-.032-.1.39-.368.945-.6s1.044-.337,1.093-.244-.374.361-.944.6-1.06.345-1.093.244" transform="translate(-119.605 330.716)" fill="#33535f"/>
        <path id="path554" d="M258.908-48.63c-.036-.1.4-.337.984-.532s1.075-.27,1.106-.169-.41.339-.985.532-1.07.269-1.105.169" transform="translate(-116.186 329.514)" fill="#33535f"/>
        <path id="path556" d="M251.431-45.859c-.04-.1.389-.359.957-.582s1.058-.326,1.1-.227-.39.359-.956.583-1.056.324-1.1.227" transform="translate(-112.83 328.316)" fill="#33535f"/>
        <path id="path558" d="M244.058-42.8c-.043-.1.376-.371.937-.612s1.048-.359,1.089-.262-.379.372-.938.612-1.046.359-1.089.262" transform="translate(-109.522 326.969)" fill="#33535f"/>
        <path id="path560" d="M229.159-290.907s4.807-1.444,11.192-8.569,8.964-16.146,9.808-16.166,4.394-2,12.515,12.687,5.631,18.422,4.237,18.5-11.034-1.855-16.884-.746-13.2,4.748-13.2,4.748l-7.664-10.452" transform="translate(-102.837 449.048)" fill="#33535f"/>
        <path id="path562" d="M210.931-264.07l1.9,3.046.853,1.364a4.149,4.149,0,0,0,5.529,1.432l10.2-4.429-7.136-13.472-10.05,6.355a4.148,4.148,0,0,0-1.3,5.7" transform="translate(-94.374 431.272)" fill="#17282f"/>
        <path id="path564" d="M223.085-248.289l3.825,6.294,1.635-.588,11.56,8.056,2.6-6.19s-6.648-2.3-8.01-4.5-.025-2.832-.025-2.832l-3.288-3.219-8.3,2.983" transform="translate(-100.111 420.117)" fill="#17282f"/>
        <path id="path566" d="M279.5-302.383c4.333,7.961,6.427,15.186,4.677,16.138s-6.679-4.73-11.012-12.69-6.428-15.186-4.679-16.138,6.68,4.73,11.013,12.69" transform="translate(-120.21 448.795)" fill="#17282f"/>
        <path id="path568" d="M209.4-249.333l2.773-1.1-2.006-3.21-2.031,1.482,1.263,2.831" transform="translate(-93.404 421.182)" fill="#33535f"/>
        <path id="path570" d="M233.382-249.271l-7.268,5.433-1.091-1.794Z" transform="translate(-100.981 419.219)" fill="#33535f"/>
        <path id="path572" d="M211.626-253.646l2.006,3.21-.57.226-1.679-3.259.243-.178" transform="translate(-94.86 421.182)" fill="#33535f"/>
        <path id="path574" d="M215.476-255.166a16.03,16.03,0,0,0,3.073-1.466,15.986,15.986,0,0,0,2.9-1.787,15.947,15.947,0,0,0-3.073,1.466,15.973,15.973,0,0,0-2.9,1.787" transform="translate(-96.696 423.327)" fill="#33535f"/>
        <path id="path576" d="M213.623-258.578A13.339,13.339,0,0,0,216.4-260a13.306,13.306,0,0,0,2.589-1.735,13.472,13.472,0,0,0-2.774,1.42,13.414,13.414,0,0,0-2.589,1.735" transform="translate(-95.864 424.815)" fill="#33535f"/>
        <path id="path578" d="M217.756-251.261c.018.048.35-.055.875-.262.262-.1.573-.232.917-.38s.69-.364,1.066-.569a12.1,12.1,0,0,0,2.588-1.711,14.714,14.714,0,0,0-2.764,1.391c-.373.2-.717.423-1.044.59s-.623.312-.869.444c-.491.263-.788.451-.77.5" transform="translate(-97.719 421.427)" fill="#33535f"/>
        <path id="path580" d="M274.966-294.9s4.051-2.949,6.8,2.617-1.649,6.842-1.649,6.842a38.351,38.351,0,0,1-5.154-9.459" transform="translate(-123.393 440.047)" fill="#33535f"/>
        <path id="path582" d="M265.844-306.065a6.5,6.5,0,0,0,.248,1.084c.187.691.452,1.695.817,2.924l.736,1.965.413,1.094c.071.187.143.379.217.571s.175.378.264.57l1.144,2.4.3.631c.1.212.231.41.346.619q.359.618.728,1.255l.73,1.254c.124.2.231.416.367.608l.4.574,1.524,2.185c.123.172.237.348.365.511l.39.473.747.9,1.344,1.613c.885.924,1.624,1.649,2.132,2.154a6.344,6.344,0,0,0,.819.753,6.6,6.6,0,0,0-.717-.851L277.111-285l-1.3-1.63-.726-.9-.381-.473c-.124-.162-.235-.34-.356-.512l-1.5-2.182-.393-.572c-.135-.191-.24-.4-.362-.6q-.356-.615-.723-1.246t-.724-1.245c-.115-.207-.247-.4-.346-.615l-.3-.624-1.155-2.38c-.09-.19-.188-.374-.268-.563l-.223-.565-.428-1.08-.773-1.938-.925-2.879a6.462,6.462,0,0,0-.386-1.046" transform="translate(-119.298 444.705)" fill="#17282f"/>
        <path id="path584" d="M243.721-245.445a1.251,1.251,0,0,1,.861,1.507c-.316,1.249-.833,3.213-1.248,4.412a3.172,3.172,0,0,1-.551,1.089,1.151,1.151,0,0,1-1.091.415,1.154,1.154,0,0,1-.778-.946,3.263,3.263,0,0,1,.107-1.283c.259-1.164.732-2.914,1.146-4.342a1.25,1.25,0,0,1,1.555-.853" transform="translate(-108.098 417.525)" fill="#bc6752"/>
        <path id="path586" d="M247.33-241.761a1.25,1.25,0,0,1,.861,1.507c-.316,1.25-.833,3.213-1.248,4.412a3.168,3.168,0,0,1-.551,1.089,1.145,1.145,0,0,1-1.091.415,1.152,1.152,0,0,1-.779-.945,3.256,3.256,0,0,1,.107-1.282c.259-1.165.733-2.916,1.146-4.343a1.25,1.25,0,0,1,1.555-.853" transform="translate(-109.718 415.872)" fill="#bc6752"/>
        <path id="path588" d="M251.125-239.546a1.083,1.083,0,0,1,.745,1.305c-.273,1.082-.72,2.781-1.08,3.821a2.747,2.747,0,0,1-.476.942,1,1,0,0,1-.945.359,1,1,0,0,1-.675-.819,2.85,2.85,0,0,1,.093-1.111c.224-1.008.634-2.525.991-3.76a1.084,1.084,0,0,1,1.347-.739" transform="translate(-111.592 414.875)" fill="#bc6752"/>
        <path id="path102-2" data-name="path102" d="M211.157-555.149c.145-2.134,2.613-5.294,2.512-7.438-.054-1.15,3.509-3.679,3.593-4.824.662.661,2.547,1.684,3.564,1.307,1.431-.53-.016-1.635-.926-1.232,1.69.3,3-1.27,3.746-3.373.645-1.745.362-4.1-1.553-3.38,1.939-1.357,1.321-4.628.313-6.313a2.182,2.182,0,0,0-2.738-1.253c-.763.13-2.249.575-2.515,1.384-.231-2.237.888-4.624-2.061-5.185-1.394-.266-2.238-.233-2.7,1.106a2.877,2.877,0,0,0-1.439.02c-.328-3.654-8.091-3.159-7.535.189.1-3.477-1.358-5.045-5.129-3.845-2.55.812-4.246,2.417-4.169,5.151-.516-.465-1.534-1.719-2.418-1.11-.521.358-.436,1.368-.147,1.837-.71-.692-2.315-.8-2.675.254-.237.693.257,1.246.574,1.82-1.059-.62-2.735-.69-3.192.7-.873-2.6-6.108,2.908-6.419,3.519-1.091,2.145-2.109,5.234,1.1,5.727-5.639.973.625,11.078,3.919,5.876-1.4,1.145-1.626,2.813-.232,4.041,1.921,1.694,3.741,1.088,5.177-.685-.133.4-.651,1.126-.354,1.552.354.508,1.109.285,1.475-.106a1.314,1.314,0,0,0-.131,1.049c.22-.139.456-.1.657-.361a18.167,18.167,0,0,1,4.031,6.71c.539,2.055.068,4.071,1.453,5.778,3.627,4.474,7.427-3.582,11.763-4.661" transform="translate(-116.141 728.407)" fill="#17282f"/>
        <path id="path590" d="M255.072-239.1a1.088,1.088,0,0,1,.749,1.311c-.275,1.088-.725,2.8-1.086,3.839a2.78,2.78,0,0,1-.479.947,1,1,0,0,1-.949.361,1,1,0,0,1-.678-.822,2.85,2.85,0,0,1,.093-1.116c.225-1.013.637-2.536,1-3.778a1.089,1.089,0,0,1,1.354-.742" transform="translate(-113.358 414.674)" fill="#bc6752"/>
        <path id="path592" d="M244.75-236.384a7.726,7.726,0,0,1,.542-2.351,7.737,7.737,0,0,1,.907-2.237,7.731,7.731,0,0,1-.542,2.351,7.726,7.726,0,0,1-.907,2.237" transform="translate(-109.823 415.495)" fill="#864839"/>
        <path id="path594" d="M252.264-233.384a10.238,10.238,0,0,1,.593-2.338,10.191,10.191,0,0,1,.781-2.282,6.273,6.273,0,0,1-.414,2.391,6.276,6.276,0,0,1-.96,2.229" transform="translate(-113.197 414.163)" fill="#864839"/>
        <path id="path596" d="M248.545-233.87a10.164,10.164,0,0,1,.592-2.338,10.15,10.15,0,0,1,.781-2.282,6.285,6.285,0,0,1-.415,2.391,6.3,6.3,0,0,1-.959,2.229" transform="translate(-111.528 414.381)" fill="#864839"/>
        <path id="path598" d="M305.093-342.861c.084.064-2.93,4.156-6.73,9.14s-6.952,8.973-7.035,8.909,2.929-4.156,6.731-9.141,6.951-8.973,7.035-8.908" transform="translate(-130.734 461.218)" fill="#17282f"/>
        <path id="path600" d="M328.9-321.7c.045.1-6.293,3.132-14.154,6.78s-14.272,6.53-14.317,6.433,6.292-3.131,14.156-6.781,14.27-6.529,14.315-6.433" transform="translate(-134.821 451.724)" fill="#17282f"/>
        <path id="path602" d="M330.354-279.265c-.009.105-4.527-.244-10.088-.781s-10.062-1.056-10.052-1.162,4.527.244,10.089.781,10.061,1.056,10.051,1.161" transform="translate(-139.211 433.559)" fill="#17282f"/>
        <path id="path604" d="M136.33-266.461l4.991,28.373a9.34,9.34,0,0,0,10.516,7.555,9.239,9.239,0,0,0,7.939-10.616l-.811-4.883s7.975-1.359,7.246-8.369c-.351-3.379-2.641-10.809-3.889-17.043-1.4-6.978-9.792-8.037-16.919-6.894-7.344,1.262-10.556,4.681-9.072,11.877" transform="translate(-61.07 434.368)" fill="#bc6752"/>
        <path id="path606" d="M169.819-217.144a16.868,16.868,0,0,1-9.567-1.546s2.778,4.791,9.8,3.357l-.228-1.811" transform="translate(-71.914 405.495)" fill="#864839"/>
        <path id="path608" d="M179.279-254.081a1.009,1.009,0,0,1-.861,1.119.976.976,0,0,1-1.151-.783,1.01,1.01,0,0,1,.86-1.12.978.978,0,0,1,1.152.784" transform="translate(-79.545 421.736)" fill="#17282f"/>
        <path id="path610" d="M178.076-257.195c-.111.145-.945-.328-2.037-.2s-1.829.756-1.963.637c-.065-.052.036-.3.356-.592a2.819,2.819,0,0,1,1.552-.67,2.724,2.724,0,0,1,1.64.323c.365.216.506.439.452.5" transform="translate(-78.109 423.153)" fill="#17282f"/>
        <path id="path612" d="M160.642-251.833a1.008,1.008,0,0,1-.861,1.119.975.975,0,0,1-1.151-.783,1.009,1.009,0,0,1,.86-1.119.976.976,0,0,1,1.153.783" transform="translate(-71.181 420.727)" fill="#17282f"/>
        <path id="path614" d="M158.933-254.628c-.11.145-.946-.329-2.037-.2-1.092.111-1.829.755-1.963.636-.065-.051.035-.3.356-.59a2.809,2.809,0,0,1,1.552-.671,2.725,2.725,0,0,1,1.64.323c.365.216.506.439.451.5" transform="translate(-69.519 422.001)" fill="#17282f"/>
        <path id="path618" d="M165.31-237.1c.177-.03.315,1.137,1.427,1.851s2.358.443,2.386.6c.025.071-.255.259-.786.333a3.013,3.013,0,0,1-1.985-.438,2.553,2.553,0,0,1-1.119-1.561c-.1-.484,0-.788.078-.79" transform="translate(-74.129 413.757)" fill="#17282f"/>
        <path id="path620" d="M157.812-260.96c-.073.305-1.18.29-2.444.587-1.269.271-2.26.758-2.46.515-.09-.117.057-.412.442-.743a4.2,4.2,0,0,1,1.769-.844,4.25,4.25,0,0,1,1.967.005c.492.134.756.337.725.48" transform="translate(-68.607 424.732)" fill="#17282f"/>
        <path id="path622" d="M177.2-261.646c-.163.265-.945.1-1.851.188-.909.059-1.652.353-1.858.117-.092-.115,0-.373.309-.642a2.592,2.592,0,0,1,1.456-.57,2.6,2.6,0,0,1,1.532.324c.349.215.484.454.412.584" transform="translate(-77.841 425.184)" fill="#17282f"/>
        <path id="path626" d="M137.976-247.567c-.127-.038-5.049-.87-4.336,3.9s5.426,3.08,5.414,2.941-1.078-6.839-1.078-6.839" transform="translate(-59.94 418.489)" fill="#bc6752"/>
        <path id="path628" d="M138.346-240.954c-.024-.012-.076.071-.209.156a.865.865,0,0,1-.628.1,2.079,2.079,0,0,1-1.241-1.7,2.721,2.721,0,0,1,.058-1.224.972.972,0,0,1,.539-.73.438.438,0,0,1,.532.155c.085.124.068.224.095.229s.092-.095.024-.287a.536.536,0,0,0-.235-.271.656.656,0,0,0-.484-.054,1.186,1.186,0,0,0-.77.867,2.806,2.806,0,0,0-.093,1.371,2.189,2.189,0,0,0,1.538,1.88.921.921,0,0,0,.753-.237c.132-.14.142-.25.124-.256" transform="translate(-60.98 417.123)" fill="#864839"/>
        <path id="path630" d="M111.83-184.908a.877.877,0,0,1,.419-.067,1.644,1.644,0,0,1,1.087.541,2.371,2.371,0,0,1,.635,1.807,10.365,10.365,0,0,1-.559,2.473,3.391,3.391,0,0,0,.166,2.83c.524.909,1.589,1.609,2.027,2.877a3.4,3.4,0,0,1-1.067,3.693,3.47,3.47,0,0,1-1.985.772,7.44,7.44,0,0,1-2.127-.345,3.827,3.827,0,0,0-1.978-.127,2.886,2.886,0,0,0-1.464,1.192,10.328,10.328,0,0,1-1.254,1.567,2.493,2.493,0,0,1-1.856.682,3.7,3.7,0,0,1-2.933-1.948,7.094,7.094,0,0,1-.748-3c-.055-.94-.023-1.785-.043-2.521a11.915,11.915,0,0,0-.162-1.876,10.047,10.047,0,0,0-.446-1.544,1.381,1.381,0,0,1,.21.365,5.468,5.468,0,0,1,.382,1.149,11.019,11.019,0,0,1,.23,1.9c.04.743.027,1.588.1,2.509a6.906,6.906,0,0,0,.755,2.863,3.388,3.388,0,0,0,2.672,1.749,2.133,2.133,0,0,0,1.595-.6,10.267,10.267,0,0,0,1.2-1.521,3.24,3.24,0,0,1,1.658-1.333,4.157,4.157,0,0,1,2.177.121,7.192,7.192,0,0,0,2.015.337,3.105,3.105,0,0,0,1.769-.683,3.043,3.043,0,0,0,.967-3.292c-.36-1.123-1.392-1.837-1.964-2.825a2.924,2.924,0,0,1-.419-1.593,5.724,5.724,0,0,1,.266-1.473,10.612,10.612,0,0,0,.605-2.409,2.229,2.229,0,0,0-.53-1.7,1.628,1.628,0,0,0-.984-.564c-.265-.032-.409.01-.412-.01" transform="translate(-44.669 390.365)" fill="#fafaf9"/>
        <path id="path632" d="M125.51-107.926c.022-.006.047.176.219.454a1.93,1.93,0,0,0,1.142.793,2.286,2.286,0,0,0,2.1-.442,4.379,4.379,0,0,0,1.406-2.568c.234-1.1.193-2.347.4-3.692a6,6,0,0,1,.678-2.008,3.353,3.353,0,0,1,1.688-1.512,4.817,4.817,0,0,1,2.362-.216c.8.088,1.583.267,2.383.369a5.655,5.655,0,0,0,2.4-.114,5.433,5.433,0,0,0,2.149-1.194,4.651,4.651,0,0,0,1.321-2.05,3.9,3.9,0,0,0-.043-2.343,4.038,4.038,0,0,0-3.194-2.843c-1.442-.163-2.8.55-4.184.578a4,4,0,0,1-1.94-.437,9.769,9.769,0,0,1-1.523-.977A9.3,9.3,0,0,0,130.3-127.7a2.632,2.632,0,0,0-2.171.143,1.976,1.976,0,0,0-.942,1.024c-.11.309-.094.492-.117.489a1.105,1.105,0,0,1,.044-.514,1.994,1.994,0,0,1,.942-1.13,2.726,2.726,0,0,1,1.026-.353,3.17,3.17,0,0,1,1.284.136,9.266,9.266,0,0,1,2.67,1.559,5.225,5.225,0,0,0,3.291,1.315,10.356,10.356,0,0,0,2-.369,6.284,6.284,0,0,1,2.231-.242,4.386,4.386,0,0,1,3.51,3.076A4.27,4.27,0,0,1,144.12-120a5.022,5.022,0,0,1-1.427,2.223,5.781,5.781,0,0,1-2.3,1.278,6.033,6.033,0,0,1-2.55.121c-.822-.109-1.607-.29-2.375-.377a4.467,4.467,0,0,0-2.19.181,3.011,3.011,0,0,0-1.527,1.353,5.722,5.722,0,0,0-.657,1.893c-.218,1.3-.193,2.562-.451,3.695a4.57,4.57,0,0,1-1.539,2.68,2.443,2.443,0,0,1-2.271.416,1.958,1.958,0,0,1-1.166-.9,1.115,1.115,0,0,1-.153-.493" transform="translate(-56.323 364.825)" fill="#fafaf9"/>
        <path id="path634" d="M159.171-173.814a2.61,2.61,0,0,1,.51-.686,3.917,3.917,0,0,1,2.175-1.1,3.8,3.8,0,0,1,3.514,1.4,4.064,4.064,0,0,1,.886,2.274,6.023,6.023,0,0,0,.556,2.557,2.011,2.011,0,0,0,1.075.8,5.453,5.453,0,0,0,1.458.226c.512.026,1.043.024,1.59.08a3.012,3.012,0,0,1,1.61.566,2.011,2.011,0,0,1,.561.717,1.974,1.974,0,0,1,.147.917,3.068,3.068,0,0,1-.765,1.66,4.649,4.649,0,0,1-1.462,1.155c-.555.282-1.135.509-1.7.77a6.005,6.005,0,0,0-1.568.964,3.071,3.071,0,0,0-.917,1.565,22.083,22.083,0,0,0-.09,3.975,5.143,5.143,0,0,1-.559,2.055,2.424,2.424,0,0,1-1.75,1.313,2.691,2.691,0,0,1-2.106-.7,6.494,6.494,0,0,1-1.4-1.71,17.326,17.326,0,0,0-1.136-1.806,3.31,3.31,0,0,0-1.564-1.218,2.814,2.814,0,0,0-1.925.123,11.649,11.649,0,0,0-1.789.956,10.292,10.292,0,0,1-1.828.952,5.544,5.544,0,0,1-2.018.334A6.321,6.321,0,0,1,147-156.972a5.246,5.246,0,0,1-2.017-3.11,3.587,3.587,0,0,1,.878-3.354,3.431,3.431,0,0,1,1.511-.783,12.763,12.763,0,0,1,1.579-.274,5.082,5.082,0,0,0,2.707-.917,5.361,5.361,0,0,0,1.441-2.18c.312-.785.523-1.567.79-2.276a6.711,6.711,0,0,1,.992-1.876,8.3,8.3,0,0,1,1.284-1.236,4.472,4.472,0,0,1,2.2-1.065.975.975,0,0,1,.813.229,1.263,1.263,0,0,0-.806-.152,4.552,4.552,0,0,0-2.112,1.1,8.361,8.361,0,0,0-1.234,1.231,6.654,6.654,0,0,0-.935,1.837c-.254.7-.454,1.485-.764,2.292a5.594,5.594,0,0,1-1.494,2.3,5.336,5.336,0,0,1-2.841,1,5.137,5.137,0,0,0-2.913,1,3.269,3.269,0,0,0-.764,3.057,4.911,4.911,0,0,0,1.9,2.9,5.971,5.971,0,0,0,3.474,1.206,5.219,5.219,0,0,0,1.883-.315,10.011,10.011,0,0,0,1.761-.925,11.929,11.929,0,0,1,1.848-.989,3.2,3.2,0,0,1,2.177-.133,3.686,3.686,0,0,1,1.75,1.348,17.532,17.532,0,0,1,1.163,1.845,6.137,6.137,0,0,0,1.317,1.61,2.31,2.31,0,0,0,1.807.614,2.038,2.038,0,0,0,1.474-1.118,4.767,4.767,0,0,0,.517-1.9,21.6,21.6,0,0,1,.11-4.035,3.445,3.445,0,0,1,1.03-1.742,6.351,6.351,0,0,1,1.663-1.02c.577-.263,1.153-.486,1.689-.756a4.315,4.315,0,0,0,1.361-1.064,2.751,2.751,0,0,0,.7-1.471,1.664,1.664,0,0,0-.116-.76,1.685,1.685,0,0,0-.466-.6,2.712,2.712,0,0,0-1.444-.507c-.523-.058-1.051-.06-1.572-.09a5.7,5.7,0,0,1-1.535-.254,2.281,2.281,0,0,1-1.208-.917,6.168,6.168,0,0,1-.573-2.679,3.839,3.839,0,0,0-.81-2.166,3.641,3.641,0,0,0-3.327-1.386,3.934,3.934,0,0,0-2.142,1.013,7.987,7.987,0,0,0-.564.631" transform="translate(-65.019 386.182)" fill="#fafaf9"/>
        <path id="path636" d="M143.354-199.662a2.6,2.6,0,0,1-1.524.748,4.925,4.925,0,0,1-1.871.014,3.246,3.246,0,0,1-2.007-1.152,4.378,4.378,0,0,1-.723-2.188,5.96,5.96,0,0,1,.132-1.858,2.479,2.479,0,0,1,.781-1.5,6.788,6.788,0,0,0-.516,1.559,6.4,6.4,0,0,0-.046,1.769,4.256,4.256,0,0,0,.679,1.994,3,3,0,0,0,1.771,1.035,5.115,5.115,0,0,0,1.752.065,7.8,7.8,0,0,0,1.571-.481" transform="translate(-61.572 399.623)" fill="#fafaf9"/>
        <path id="path638" d="M192.892-198.419c.012.005-.006.074-.052.2a2.07,2.07,0,0,1-.289.528,3.265,3.265,0,0,1-1.827,1.219,3.315,3.315,0,0,1-1.552.035,4.089,4.089,0,0,1-1.563-.836,5.2,5.2,0,0,0-1.549-.948,1.4,1.4,0,0,0-1.566.62,14.263,14.263,0,0,0-.9,1.79,3.62,3.62,0,0,1-1.3,1.48,3.509,3.509,0,0,1-3.218.351,3.529,3.529,0,0,1-1.688-1.409,1.638,1.638,0,0,1-.3-.746c.032-.013.126.259.425.663a3.581,3.581,0,0,0,1.66,1.238,3.261,3.261,0,0,0,2.927-.391,3.317,3.317,0,0,0,1.157-1.355,13.4,13.4,0,0,1,.929-1.846,1.981,1.981,0,0,1,.872-.714,1.743,1.743,0,0,1,1.1-.043,5.307,5.307,0,0,1,1.663,1.03,3.862,3.862,0,0,0,1.424.806,3.1,3.1,0,0,0,1.413.011,3.275,3.275,0,0,0,1.774-1.048c.322-.381.423-.653.458-.638" transform="translate(-79.467 396.502)" fill="#fafaf9"/>
        <path id="path640" d="M211.391-160.978a4.038,4.038,0,0,1-.815-.532,16.925,16.925,0,0,1-2.006-1.743,9.431,9.431,0,0,1-1.166-1.44,4.917,4.917,0,0,1-.732-2.022,3.985,3.985,0,0,1,.373-2.36,3.078,3.078,0,0,1,.831-.991,8.987,8.987,0,0,1,1.085-.691,4.536,4.536,0,0,0,.978-.706,2.283,2.283,0,0,0,.563-.969,5.6,5.6,0,0,0,.074-2.223,11.427,11.427,0,0,1-.151-2.116,2.554,2.554,0,0,1,.682-1.757,3.891,3.891,0,0,1,2.476-.994c.67,0,.936.342.909.341a1.613,1.613,0,0,0-.9-.193,3.916,3.916,0,0,0-2.291,1.039,2.3,2.3,0,0,0-.555,1.582,11.811,11.811,0,0,0,.184,2.054,5.823,5.823,0,0,1-.063,2.374,2.638,2.638,0,0,1-.65,1.129,4.861,4.861,0,0,1-1.058.77,3.964,3.964,0,0,0-1.778,1.527,3.664,3.664,0,0,0-.354,2.141,5.919,5.919,0,0,0,1.745,3.319c1.518,1.614,2.672,2.4,2.624,2.461" transform="translate(-92.729 387.918)" fill="#fafaf9"/>
        <path id="path642" d="M181.371-119.448a1.182,1.182,0,0,1,.344-.023c.225,0,.557.011.983.057a9.582,9.582,0,0,1,3.481,1.014,6.342,6.342,0,0,1,3.295,4.171,4.428,4.428,0,0,1-.458,3.183,4.3,4.3,0,0,1-2.763,2.065,3.877,3.877,0,0,1-1.784-.1,2.407,2.407,0,0,0-1.532-.027,2.934,2.934,0,0,0-1.187.915,8.578,8.578,0,0,0-.82,1.271,4.964,4.964,0,0,1-1.915,2.188,3.613,3.613,0,0,1-2.525.3,3.187,3.187,0,0,1-1.754-1.144,3.527,3.527,0,0,1-.675-1.428,2.92,2.92,0,0,1-.054-.992.938.938,0,0,1,.076-.337,4.938,4.938,0,0,0,.123,1.294,3.483,3.483,0,0,0,.7,1.328,2.993,2.993,0,0,0,1.653,1.016,3.356,3.356,0,0,0,2.311-.316,4.681,4.681,0,0,0,1.757-2.08,4.717,4.717,0,0,1,2.182-2.365,2.776,2.776,0,0,1,1.751.008,3.519,3.519,0,0,0,1.62.094,3.952,3.952,0,0,0,2.515-1.879,4.09,4.09,0,0,0,.437-2.922,6.125,6.125,0,0,0-3.08-4.006,10.147,10.147,0,0,0-3.371-1.1c-.837-.132-1.31-.148-1.308-.181" transform="translate(-78.078 360.97)" fill="#fafaf9"/>
        <path id="path644" d="M156.914-78.092a5.089,5.089,0,0,0-.69-1.516,3.67,3.67,0,0,0-1.374-1.111,3.125,3.125,0,0,0-2.092-.229,3.12,3.12,0,0,0-1.7,1.247,3.665,3.665,0,0,0-.633,1.649,5.094,5.094,0,0,0,.162,1.657c-.018.011-.122-.124-.24-.405a2.926,2.926,0,0,1-.191-1.276,3.709,3.709,0,0,1,.611-1.821,3.364,3.364,0,0,1,1.89-1.419,3.369,3.369,0,0,1,2.346.282,3.708,3.708,0,0,1,1.441,1.271,2.936,2.936,0,0,1,.473,1.2c.038.3.016.471-.005.472" transform="translate(-67.382 343.892)" fill="#fafaf9"/>
        <path id="path646" d="M151.423-58.736c-.037.007-.068-.345-.331-.9a3.87,3.87,0,0,0-1.762-1.809,3.639,3.639,0,0,0-3.584.27,5.732,5.732,0,0,0-1.484,1.676,4.907,4.907,0,0,1-.839.956,1.966,1.966,0,0,1-1.282.475,3.185,3.185,0,0,1-2.206-1.325,7.323,7.323,0,0,0-1.557-1.628,2.75,2.75,0,0,0-1.9-.342,3.788,3.788,0,0,0-1.609.67,6.5,6.5,0,0,0-1.7,1.949,7.83,7.83,0,0,1-.5.831,3.442,3.442,0,0,1,.372-.9,6.113,6.113,0,0,1,1.665-2.093,3.981,3.981,0,0,1,1.718-.766,3.055,3.055,0,0,1,2.142.355,7.41,7.41,0,0,1,1.658,1.685,2.853,2.853,0,0,0,1.926,1.185c.786.023,1.361-.634,1.811-1.268a5.94,5.94,0,0,1,1.593-1.75,3.891,3.891,0,0,1,3.9-.217,3.86,3.86,0,0,1,1.775,1.991,3.167,3.167,0,0,1,.189.706c.016.166.018.254.005.255" transform="translate(-59.535 335.23)" fill="#fafaf9"/>
        <path id="path648" d="M168.979-105.549a8.581,8.581,0,0,0-2.114-.93,6.57,6.57,0,0,0-2.473-.133,5.905,5.905,0,0,0-2.791,1.086,5.087,5.087,0,0,0-1.765,2.389,5.3,5.3,0,0,0-.267,2.438,6.875,6.875,0,0,0,.781,2.161,1.587,1.587,0,0,1-.412-.489,4.346,4.346,0,0,1-.635-1.63,5.309,5.309,0,0,1,.2-2.6,5.294,5.294,0,0,1,1.87-2.581,6.063,6.063,0,0,1,2.977-1.129,6.469,6.469,0,0,1,2.586.222,5.137,5.137,0,0,1,1.574.758c.33.247.482.419.468.434" transform="translate(-71.453 355.376)" fill="#fafaf9"/>
        <path id="path124-2" data-name="path124" d="M222.324-516.474l.181,1.326-.041-.025a2.73,2.73,0,0,1,.851-.17,1.066,1.066,0,0,1,.438.071.571.571,0,0,1,.33.31,1.231,1.231,0,0,1,.082.438,3.864,3.864,0,0,1,0,.435,2.2,2.2,0,0,1-.2.857l-.017.033-.042-.005c-.6-.073-1.2-.158-1.806-.238s-1.2-.162-1.8-.249l-.036-.005v-.034a5.1,5.1,0,0,1,.027-.533,2.015,2.015,0,0,1,.115-.523.423.423,0,0,1,.161-.22.371.371,0,0,1,.269,0,.748.748,0,0,1,.423.306.735.735,0,0,0-.429-.282.343.343,0,0,0-.244.009.383.383,0,0,0-.134.206,2.242,2.242,0,0,0-.092.512,5.139,5.139,0,0,0-.013.524l-.036-.039q.905.1,1.808.219c.6.077,1.206.148,1.807.231l-.059.028a2.121,2.121,0,0,0,.194-.8,3.8,3.8,0,0,0,0-.423,1.14,1.14,0,0,0-.07-.4.475.475,0,0,0-.272-.266.977.977,0,0,0-.4-.074,2.686,2.686,0,0,0-.83.144l-.038.012,0-.037-.12-1.333" transform="translate(-127.52 687.7)" fill="#17282f" stroke="#162830" stroke-width="0.133"/>
        <path id="Path_2230" data-name="Path 2230" d="M58.2,134.3c-.409-.457,5.289-12.226,10.845-10.151s15,1.965,15,1.965l-4.893-10.4H65.445L56.369,119.4Z" transform="translate(17.046 34.994)" fill="#17282f"/>
      </g>
    </g>
  </g>
</svg>
